simulation/qsim/Forno.msim.vcd
$comment
	File created using the following command:
		vcd file Forno.msim.vcd -direction
$end
$date
	Tue May 28 11:18:57 2024
$end
$version
	Questa Intel Starter FPGA Edition Version 2021.2
$end
$timescale
	1ps
$end

$scope module singlepulsegenerator_vhd_vec_tst $end
$var wire 1 ! clk $end
$var wire 1 " longHigh $end
$var wire 1 # reset $end
$var wire 1 $ singleOut $end

$scope module i1 $end
$var wire 1 % gnd $end
$var wire 1 & vcc $end
$var wire 1 ' unknown $end
$var wire 1 ( devoe $end
$var wire 1 ) devclrn $end
$var wire 1 * devpor $end
$var wire 1 + ww_devoe $end
$var wire 1 , ww_devclrn $end
$var wire 1 - ww_devpor $end
$var wire 1 . ww_clk $end
$var wire 1 / ww_reset $end
$var wire 1 0 ww_longHigh $end
$var wire 1 1 ww_singleOut $end
$var wire 1 2 \singleOut~output_o\ $end
$var wire 1 3 \clk~input_o\ $end
$var wire 1 4 \longHigh~input_o\ $end
$var wire 1 5 \reset~input_o\ $end
$var wire 1 6 \s_currentState~0_combout\ $end
$var wire 1 7 \s_currentState~q\ $end
$var wire 1 8 \ALT_INV_s_currentState~q\ $end
$upscope $end
$upscope $end
$enddefinitions $end
#0
$dumpvars
0!
1"
0#
1$
0%
1&
x'
1(
1)
1*
1+
1,
1-
0.
0/
10
11
12
03
14
05
16
07
18
$end
#15000
1!
1.
13
17
08
02
01
0$
#30000
0!
0.
03
#45000
1!
1.
13
#60000
0!
0.
03
#75000
1!
1.
13
#80000
0"
00
04
06
#90000
0!
0.
03
#105000
1!
1.
13
07
18
16
12
11
1$
#120000
0!
0.
03
#135000
1!
1.
13
17
08
06
02
01
0$
#150000
0!
0.
03
#160000
1"
10
14
16
#165000
1!
1.
13
#180000
0!
0.
03
#195000
1!
1.
13
#210000
0!
0.
03
#225000
1!
1.
13
#240000
0!
0.
03
#255000
1!
1.
13
#270000
0!
0.
03
#285000
1!
1.
13
#300000
0!
0.
03
#315000
1!
1.
13
#320000
0"
00
04
06
#330000
0!
0.
03
#345000
1!
1.
13
07
18
16
12
11
1$
#360000
0!
0.
03
#375000
1!
1.
13
17
08
06
02
01
0$
#390000
0!
0.
03
#400000
1"
10
14
16
#405000
1!
1.
13
#420000
0!
0.
03
#435000
1!
1.
13
#450000
0!
0.
03
#465000
1!
1.
13
#480000
0!
0.
03
#495000
1!
1.
13
#500000
0"
00
04
06
#510000
0!
0.
03
#525000
1!
1.
13
07
18
16
12
11
1$
#540000
0!
0.
03
#555000
1!
1.
13
17
08
06
02
01
0$
#570000
0!
0.
03
#585000
1!
1.
13
07
18
16
12
11
1$
#600000
0!
0.
03
#615000
1!
1.
13
17
08
06
02
01
0$
#630000
0!
0.
03
#645000
1!
1.
13
07
18
16
12
11
1$
#660000
0!
1"
0.
10
14
03
#675000
1!
1.
13
17
08
02
01
0$
#690000
0!
0.
03
#705000
1!
1.
13
#720000
0!
0.
03
#735000
1!
1.
13
#750000
0!
0.
03
#765000
1!
1.
13
#780000
0!
0.
03
#795000
1!
1.
13
#810000
0!
0.
03
#825000
1!
1.
13
#840000
0!
0.
03
#855000
1!
1.
13
#870000
0!
0.
03
#885000
1!
1.
13
#900000
0!
0.
03
#915000
1!
1.
13
#930000
0!
0.
03
#945000
1!
1.
13
#960000
0!
0.
03
#975000
1!
1.
13
#990000
0!
0.
03
