simulation/qsim/Forno.msim.vcd
$comment
	File created using the following command:
		vcd file Forno.msim.vcd -direction
$end
$date
	Wed May 22 17:01:59 2024
$end
$version
	Questa Intel Starter FPGA Edition Version 2021.2
$end
$timescale
	1ps
$end

$scope module heater_vhd_vec_tst $end
$var wire 1 ! actualTemperature [15] $end
$var wire 1 " actualTemperature [14] $end
$var wire 1 # actualTemperature [13] $end
$var wire 1 $ actualTemperature [12] $end
$var wire 1 % actualTemperature [11] $end
$var wire 1 & actualTemperature [10] $end
$var wire 1 ' actualTemperature [9] $end
$var wire 1 ( actualTemperature [8] $end
$var wire 1 ) actualTemperature [7] $end
$var wire 1 * actualTemperature [6] $end
$var wire 1 + actualTemperature [5] $end
$var wire 1 , actualTemperature [4] $end
$var wire 1 - actualTemperature [3] $end
$var wire 1 . actualTemperature [2] $end
$var wire 1 / actualTemperature [1] $end
$var wire 1 0 actualTemperature [0] $end
$var wire 1 1 averageTemperature [15] $end
$var wire 1 2 averageTemperature [14] $end
$var wire 1 3 averageTemperature [13] $end
$var wire 1 4 averageTemperature [12] $end
$var wire 1 5 averageTemperature [11] $end
$var wire 1 6 averageTemperature [10] $end
$var wire 1 7 averageTemperature [9] $end
$var wire 1 8 averageTemperature [8] $end
$var wire 1 9 averageTemperature [7] $end
$var wire 1 : averageTemperature [6] $end
$var wire 1 ; averageTemperature [5] $end
$var wire 1 < averageTemperature [4] $end
$var wire 1 = averageTemperature [3] $end
$var wire 1 > averageTemperature [2] $end
$var wire 1 ? averageTemperature [1] $end
$var wire 1 @ averageTemperature [0] $end
$var wire 1 A clk $end
$var wire 1 B enable $end
$var wire 1 C heatOn $end
$var wire 1 D reset $end

$scope module i1 $end
$var wire 1 E gnd $end
$var wire 1 F vcc $end
$var wire 1 G unknown $end
$var wire 1 H devoe $end
$var wire 1 I devclrn $end
$var wire 1 J devpor $end
$var wire 1 K ww_devoe $end
$var wire 1 L ww_devclrn $end
$var wire 1 M ww_devpor $end
$var wire 1 N ww_clk $end
$var wire 1 O ww_reset $end
$var wire 1 P ww_enable $end
$var wire 1 Q ww_heatOn $end
$var wire 1 R ww_averageTemperature [15] $end
$var wire 1 S ww_averageTemperature [14] $end
$var wire 1 T ww_averageTemperature [13] $end
$var wire 1 U ww_averageTemperature [12] $end
$var wire 1 V ww_averageTemperature [11] $end
$var wire 1 W ww_averageTemperature [10] $end
$var wire 1 X ww_averageTemperature [9] $end
$var wire 1 Y ww_averageTemperature [8] $end
$var wire 1 Z ww_averageTemperature [7] $end
$var wire 1 [ ww_averageTemperature [6] $end
$var wire 1 \ ww_averageTemperature [5] $end
$var wire 1 ] ww_averageTemperature [4] $end
$var wire 1 ^ ww_averageTemperature [3] $end
$var wire 1 _ ww_averageTemperature [2] $end
$var wire 1 ` ww_averageTemperature [1] $end
$var wire 1 a ww_averageTemperature [0] $end
$var wire 1 b ww_actualTemperature [15] $end
$var wire 1 c ww_actualTemperature [14] $end
$var wire 1 d ww_actualTemperature [13] $end
$var wire 1 e ww_actualTemperature [12] $end
$var wire 1 f ww_actualTemperature [11] $end
$var wire 1 g ww_actualTemperature [10] $end
$var wire 1 h ww_actualTemperature [9] $end
$var wire 1 i ww_actualTemperature [8] $end
$var wire 1 j ww_actualTemperature [7] $end
$var wire 1 k ww_actualTemperature [6] $end
$var wire 1 l ww_actualTemperature [5] $end
$var wire 1 m ww_actualTemperature [4] $end
$var wire 1 n ww_actualTemperature [3] $end
$var wire 1 o ww_actualTemperature [2] $end
$var wire 1 p ww_actualTemperature [1] $end
$var wire 1 q ww_actualTemperature [0] $end
$var wire 1 r \actualTemperature[0]~output_o\ $end
$var wire 1 s \actualTemperature[1]~output_o\ $end
$var wire 1 t \actualTemperature[2]~output_o\ $end
$var wire 1 u \actualTemperature[3]~output_o\ $end
$var wire 1 v \actualTemperature[4]~output_o\ $end
$var wire 1 w \actualTemperature[5]~output_o\ $end
$var wire 1 x \actualTemperature[6]~output_o\ $end
$var wire 1 y \actualTemperature[7]~output_o\ $end
$var wire 1 z \actualTemperature[8]~output_o\ $end
$var wire 1 { \actualTemperature[9]~output_o\ $end
$var wire 1 | \actualTemperature[10]~output_o\ $end
$var wire 1 } \actualTemperature[11]~output_o\ $end
$var wire 1 ~ \actualTemperature[12]~output_o\ $end
$var wire 1 !! \actualTemperature[13]~output_o\ $end
$var wire 1 "! \actualTemperature[14]~output_o\ $end
$var wire 1 #! \actualTemperature[15]~output_o\ $end
$var wire 1 $! \clk~input_o\ $end
$var wire 1 %! \Add0~0_combout\ $end
$var wire 1 &! \reset~input_o\ $end
$var wire 1 '! \enable~input_o\ $end
$var wire 1 (! \s_actualTemperature[1]~0_combout\ $end
$var wire 1 )! \heatOn~input_o\ $end
$var wire 1 *! \Add0~1\ $end
$var wire 1 +! \Add0~3\ $end
$var wire 1 ,! \Add0~4_combout\ $end
$var wire 1 -! \Add0~5\ $end
$var wire 1 .! \Add0~6_combout\ $end
$var wire 1 /! \s_actualTemperature~3_combout\ $end
$var wire 1 0! \Add0~7\ $end
$var wire 1 1! \Add0~8_combout\ $end
$var wire 1 2! \Add0~9\ $end
$var wire 1 3! \Add0~10_combout\ $end
$var wire 1 4! \Add0~11\ $end
$var wire 1 5! \Add0~12_combout\ $end
$var wire 1 6! \Add0~13\ $end
$var wire 1 7! \Add0~14_combout\ $end
$var wire 1 8! \Add0~15\ $end
$var wire 1 9! \Add0~16_combout\ $end
$var wire 1 :! \Add0~17\ $end
$var wire 1 ;! \Add0~18_combout\ $end
$var wire 1 <! \Add0~19\ $end
$var wire 1 =! \Add0~20_combout\ $end
$var wire 1 >! \Add0~21\ $end
$var wire 1 ?! \Add0~22_combout\ $end
$var wire 1 @! \Add0~23\ $end
$var wire 1 A! \Add0~24_combout\ $end
$var wire 1 B! \Add0~25\ $end
$var wire 1 C! \Add0~26_combout\ $end
$var wire 1 D! \Add0~27\ $end
$var wire 1 E! \Add0~28_combout\ $end
$var wire 1 F! \averageTemperature[15]~input_o\ $end
$var wire 1 G! \averageTemperature[14]~input_o\ $end
$var wire 1 H! \averageTemperature[13]~input_o\ $end
$var wire 1 I! \averageTemperature[12]~input_o\ $end
$var wire 1 J! \averageTemperature[11]~input_o\ $end
$var wire 1 K! \averageTemperature[10]~input_o\ $end
$var wire 1 L! \averageTemperature[9]~input_o\ $end
$var wire 1 M! \averageTemperature[8]~input_o\ $end
$var wire 1 N! \averageTemperature[7]~input_o\ $end
$var wire 1 O! \averageTemperature[6]~input_o\ $end
$var wire 1 P! \averageTemperature[5]~input_o\ $end
$var wire 1 Q! \averageTemperature[4]~input_o\ $end
$var wire 1 R! \averageTemperature[3]~input_o\ $end
$var wire 1 S! \averageTemperature[2]~input_o\ $end
$var wire 1 T! \averageTemperature[1]~input_o\ $end
$var wire 1 U! \averageTemperature[0]~input_o\ $end
$var wire 1 V! \LessThan0~1_cout\ $end
$var wire 1 W! \LessThan0~3_cout\ $end
$var wire 1 X! \LessThan0~5_cout\ $end
$var wire 1 Y! \LessThan0~7_cout\ $end
$var wire 1 Z! \LessThan0~9_cout\ $end
$var wire 1 [! \LessThan0~11_cout\ $end
$var wire 1 \! \LessThan0~13_cout\ $end
$var wire 1 ]! \LessThan0~15_cout\ $end
$var wire 1 ^! \LessThan0~17_cout\ $end
$var wire 1 _! \LessThan0~19_cout\ $end
$var wire 1 `! \LessThan0~21_cout\ $end
$var wire 1 a! \LessThan0~23_cout\ $end
$var wire 1 b! \LessThan0~25_cout\ $end
$var wire 1 c! \LessThan0~27_cout\ $end
$var wire 1 d! \LessThan0~29_cout\ $end
$var wire 1 e! \LessThan0~30_combout\ $end
$var wire 1 f! \s_actualTemperature~1_combout\ $end
$var wire 1 g! \Add0~2_combout\ $end
$var wire 1 h! \s_actualTemperature~2_combout\ $end
$var wire 1 i! s_actualTemperature [15] $end
$var wire 1 j! s_actualTemperature [14] $end
$var wire 1 k! s_actualTemperature [13] $end
$var wire 1 l! s_actualTemperature [12] $end
$var wire 1 m! s_actualTemperature [11] $end
$var wire 1 n! s_actualTemperature [10] $end
$var wire 1 o! s_actualTemperature [9] $end
$var wire 1 p! s_actualTemperature [8] $end
$var wire 1 q! s_actualTemperature [7] $end
$var wire 1 r! s_actualTemperature [6] $end
$var wire 1 s! s_actualTemperature [5] $end
$var wire 1 t! s_actualTemperature [4] $end
$var wire 1 u! s_actualTemperature [3] $end
$var wire 1 v! s_actualTemperature [2] $end
$var wire 1 w! s_actualTemperature [1] $end
$var wire 1 x! s_actualTemperature [0] $end
$var wire 1 y! ALT_INV_s_actualTemperature [4] $end
$var wire 1 z! ALT_INV_s_actualTemperature [3] $end
$var wire 1 {! ALT_INV_s_actualTemperature [2] $end
$upscope $end
$upscope $end
$enddefinitions $end
#0
$dumpvars
0A
1B
1C
0D
0E
1F
xG
1H
1I
1J
1K
1L
1M
0N
0O
1P
1Q
0r
0s
1t
0u
1v
0w
0x
0y
0z
0{
0|
0}
0~
0!!
0"!
0#!
0$!
1%!
0&!
1'!
1(!
1)!
0*!
1+!
1,!
0-!
1.!
0/!
10!
01!
02!
03!
14!
05!
06!
07!
18!
09!
0:!
0;!
1<!
0=!
0>!
0?!
1@!
0A!
0B!
0C!
1D!
0E!
0F!
0G!
0H!
0I!
0J!
0K!
0L!
0M!
0N!
1O!
1P!
0Q!
0R!
1S!
0T!
0U!
0V!
1W!
0X!
1Y!
0Z!
0[!
1\!
0]!
1^!
0_!
1`!
0a!
1b!
0c!
1d!
1e!
1f!
1g!
0h!
01
02
03
04
05
06
07
08
09
1:
1;
0<
0=
1>
0?
0@
0!
0"
0#
0$
0%
0&
0'
0(
0)
0*
0+
1,
0-
1.
0/
00
0R
0S
0T
0U
0V
0W
0X
0Y
0Z
1[
1\
0]
0^
1_
0`
0a
0i!
0j!
0k!
0l!
0m!
0n!
0o!
0p!
0q!
0r!
0s!
0t!
0u!
0v!
0w!
xx!
1y!
xz!
1{!
0b
0c
0d
0e
0f
0g
0h
0i
0j
0k
0l
1m
0n
1o
0p
0q
$end
#15000
1A
1N
1$!
1w!
1u!
0,!
1-!
0%!
1*!
0g!
0+!
0.!
00!
1u
1s
11!
1/!
1,!
1h!
1n
1p
1/
1-
#30000
0A
0N
0$!
#45000
1A
1N
1$!
0w!
1t!
1s!
1v!
0y!
0{!
1g!
1+!
1X!
01!
12!
1[!
1.!
10!
1%!
0*!
0g!
11!
02!
0/!
13!
0,!
0h!
1w
0s
0t
0v
03!
1h!
1l
0p
0o
0m
0/
1+
0.
0,
#60000
0A
0N
0$!
#75000
1A
1N
1$!
1w!
0u!
0t!
1y!
0.!
00!
1,!
0-!
0Y!
0%!
1*!
1g!
1.!
10!
01!
12!
1/!
0u
1s
1v
13!
11!
02!
0/!
0h!
0n
1p
1m
1/
0-
03!
1,
#90000
0A
0N
0$!
#105000
1A
1N
1$!
0w!
1u!
0v!
1{!
0g!
0+!
0X!
0,!
1-!
1Y!
1%!
0*!
1g!
1+!
0.!
00!
1,!
1h!
1u
0s
1t
01!
12!
1/!
0,!
0h!
1n
0p
1o
0/
1-
13!
1.
#120000
0A
0N
0$!
#135000
1A
1N
1$!
1w!
0u!
1t!
0s!
1r!
0y!
03!
04!
0\!
11!
02!
0[!
1.!
10!
1,!
0-!
0%!
1*!
0g!
0+!
0.!
01!
0/!
1\!
13!
14!
1]!
15!
1x
0w
0u
1s
0v
0^!
05!
0]!
1/!
0,!
1-!
1h!
1k
0l
0n
1p
0m
1/
0-
0+
1*
1.!
1^!
1_!
0,
0`!
0_!
0/!
1`!
1a!
0b!
0a!
1b!
1c!
0d!
0c!
1d!
0e!
0f!
1e!
1f!
1g!
1,!
0-!
0.!
00!
11!
03!
04!
15!
17!
19!
1;!
1=!
1?!
1A!
1C!
1E!
1/!
0h!
0g!
0,!
1-!
10!
13!
14!
07!
09!
0;!
0=!
0?!
0A!
0C!
0E!
05!
01!
1.!
1h!
0/!
#150000
0A
0N
0$!
#165000
1A
1N
1$!
0w!
0t!
1v!
1y!
0{!
1g!
1+!
1X!
0.!
00!
1%!
0*!
0g!
11!
1/!
0Y!
1,!
0-!
0h!
0s
0t
1v
1.!
10!
1h!
0p
0o
1m
0/
01!
0/!
0.
1,
#180000
0A
0N
0$!
#195000
1A
1N
1$!
1w!
1u!
0,!
1-!
1Y!
0%!
1*!
1g!
0.!
00!
1u
1s
11!
1/!
0h!
1n
1p
1/
1-
#210000
0A
0N
0$!
#225000
1A
1N
1$!
0w!
0u!
1t!
1s!
0v!
0y!
1{!
0g!
0+!
0X!
01!
12!
1[!
1.!
10!
1,!
0-!
0Y!
1%!
0*!
1g!
1+!
1Z!
0.!
11!
02!
0/!
0\!
03!
04!
1Y!
0,!
1-!
1h!
1w
0u
0s
1t
0v
1.!
0Z!
15!
1]!
13!
14!
1/!
0[!
1,!
0-!
0h!
1l
0n
0p
1o
0m
0/
0-
1+
0.!
1\!
05!
0^!
1[!
0/!
1.
0,
0\!
1_!
0]!
1/!
1^!
0`!
1]!
0^!
1a!
0_!
1`!
0b!
1_!
0`!
1c!
0a!
1b!
0d!
1a!
0b!
0e!
0c!
1d!
0f!
1c!
0d!
0g!
0+!
0,!
1.!
01!
12!
03!
04!
15!
17!
19!
1;!
1=!
1?!
1A!
1C!
1E!
1e!
1f!
05!
16!
13!
0/!
1,!
1h!
0e!
0f!
1g!
1+!
0,!
1-!
0.!
11!
02!
03!
15!
06!
09!
0;!
0=!
0?!
0A!
0C!
0E!
1/!
0h!
0g!
0+!
0-!
00!
01!
12!
05!
16!
19!
1;!
1=!
1?!
1A!
1C!
1E!
07!
08!
13!
11!
1.!
10!
1,!
1h!
01!
0/!
09!
1:!
0;!
0<!
0=!
1>!
0?!
0@!
0A!
1B!
0C!
0D!
0E!
#240000
0A
0N
0$!
#255000
1A
1N
1$!
1w!
1u!
0t!
0s!
1v!
1y!
0{!
1g!
1+!
1X!
11!
02!
0[!
0.!
00!
0,!
1-!
0%!
1*!
0g!
0+!
1.!
01!
12!
1/!
1\!
03!
1,!
0-!
0h!
0w
1u
1s
0t
1v
0.!
0]!
13!
0/!
0,!
1-!
1h!
0l
1n
1p
0o
1m
1/
1-
0+
1.!
1^!
1/!
0.
1,
0_!
0/!
1`!
0a!
1b!
0c!
1d!
1e!
1f!
1g!
1+!
1,!
0.!
11!
02!
03!
15!
06!
17!
18!
19!
0:!
1;!
1<!
1=!
0>!
1?!
1@!
1A!
0B!
1C!
1D!
1E!
0E!
0C!
0A!
0?!
0=!
0;!
09!
07!
13!
14!
1/!
0,!
0h!
05!
#270000
0A
0N
0$!
#285000
1A
1N
1$!
0w!
0u!
1t!
1s!
0v!
0y!
1{!
0g!
0+!
0X!
01!
12!
1[!
1.!
10!
1,!
0-!
0Y!
1%!
0*!
1g!
1+!
1Z!
0.!
11!
02!
0/!
0\!
03!
04!
1Y!
0,!
1-!
1h!
1w
0u
0s
1t
0v
1.!
0Z!
15!
1]!
13!
14!
1/!
0[!
1,!
0-!
0h!
1l
0n
0p
1o
0m
0/
0-
1+
0.!
1\!
05!
0^!
1[!
0/!
1.
0,
0\!
1_!
0]!
1/!
1^!
0`!
1]!
0^!
1a!
0_!
1`!
0b!
1_!
0`!
1c!
0a!
1b!
0d!
1a!
0b!
0e!
0c!
1d!
0f!
1c!
0d!
0g!
0+!
0,!
1.!
01!
12!
03!
04!
15!
17!
19!
1;!
1=!
1?!
1A!
1C!
1E!
1e!
1f!
05!
16!
13!
0/!
1,!
1h!
0e!
0f!
1g!
1+!
0,!
1-!
0.!
11!
02!
03!
15!
06!
09!
0;!
0=!
0?!
0A!
0C!
0E!
1/!
0h!
0g!
0+!
0-!
00!
01!
12!
05!
16!
19!
1;!
1=!
1?!
1A!
1C!
1E!
07!
08!
13!
11!
1.!
10!
1,!
1h!
01!
0/!
09!
1:!
0;!
0<!
0=!
1>!
0?!
0@!
0A!
1B!
0C!
0D!
0E!
#300000
0A
0N
0$!
#315000
1A
1N
1$!
1w!
1u!
0t!
0s!
1v!
1y!
0{!
1g!
1+!
1X!
11!
02!
0[!
0.!
00!
0,!
1-!
0%!
1*!
0g!
0+!
1.!
01!
12!
1/!
1\!
03!
1,!
0-!
0h!
0w
1u
1s
0t
1v
0.!
0]!
13!
0/!
0,!
1-!
1h!
0l
1n
1p
0o
1m
1/
1-
0+
1.!
1^!
1/!
0.
1,
0_!
0/!
1`!
0a!
1b!
0c!
1d!
1e!
1f!
1g!
1+!
1,!
0.!
11!
02!
03!
15!
06!
17!
18!
19!
0:!
1;!
1<!
1=!
0>!
1?!
1@!
1A!
0B!
1C!
1D!
1E!
0E!
0C!
0A!
0?!
0=!
0;!
09!
07!
13!
14!
1/!
0,!
0h!
05!
#330000
0A
0N
0$!
#345000
1A
1N
1$!
0w!
0u!
1t!
1s!
0v!
0y!
1{!
0g!
0+!
0X!
01!
12!
1[!
1.!
10!
1,!
0-!
0Y!
1%!
0*!
1g!
1+!
1Z!
0.!
11!
02!
0/!
0\!
03!
04!
1Y!
0,!
1-!
1h!
1w
0u
0s
1t
0v
1.!
0Z!
15!
1]!
13!
14!
1/!
0[!
1,!
0-!
0h!
1l
0n
0p
1o
0m
0/
0-
1+
0.!
1\!
05!
0^!
1[!
0/!
1.
0,
0\!
1_!
0]!
1/!
1^!
0`!
1]!
0^!
1a!
0_!
1`!
0b!
1_!
0`!
1c!
0a!
1b!
0d!
1a!
0b!
0e!
0c!
1d!
0f!
1c!
0d!
0g!
0+!
0,!
1.!
01!
12!
03!
04!
15!
17!
19!
1;!
1=!
1?!
1A!
1C!
1E!
1e!
1f!
05!
16!
13!
0/!
1,!
1h!
0e!
0f!
1g!
1+!
0,!
1-!
0.!
11!
02!
03!
15!
06!
09!
0;!
0=!
0?!
0A!
0C!
0E!
1/!
0h!
0g!
0+!
0-!
00!
01!
12!
05!
16!
19!
1;!
1=!
1?!
1A!
1C!
1E!
07!
08!
13!
11!
1.!
10!
1,!
1h!
01!
0/!
09!
1:!
0;!
0<!
0=!
1>!
0?!
0@!
0A!
1B!
0C!
0D!
0E!
#360000
0A
0N
0$!
#375000
1A
1N
1$!
1w!
1u!
0t!
0s!
1v!
1y!
0{!
1g!
1+!
1X!
11!
02!
0[!
0.!
00!
0,!
1-!
0%!
1*!
0g!
0+!
1.!
01!
12!
1/!
1\!
03!
1,!
0-!
0h!
0w
1u
1s
0t
1v
0.!
0]!
13!
0/!
0,!
1-!
1h!
0l
1n
1p
0o
1m
1/
1-
0+
1.!
1^!
1/!
0.
1,
0_!
0/!
1`!
0a!
1b!
0c!
1d!
1e!
1f!
1g!
1+!
1,!
0.!
11!
02!
03!
15!
06!
17!
18!
19!
0:!
1;!
1<!
1=!
0>!
1?!
1@!
1A!
0B!
1C!
1D!
1E!
0E!
0C!
0A!
0?!
0=!
0;!
09!
07!
13!
14!
1/!
0,!
0h!
05!
#390000
0A
0N
0$!
#405000
1A
1N
1$!
0w!
0u!
1t!
1s!
0v!
0y!
1{!
0g!
0+!
0X!
01!
12!
1[!
1.!
10!
1,!
0-!
0Y!
1%!
0*!
1g!
1+!
1Z!
0.!
11!
02!
0/!
0\!
03!
04!
1Y!
0,!
1-!
1h!
1w
0u
0s
1t
0v
1.!
0Z!
15!
1]!
13!
14!
1/!
0[!
1,!
0-!
0h!
1l
0n
0p
1o
0m
0/
0-
1+
0.!
1\!
05!
0^!
1[!
0/!
1.
0,
0\!
1_!
0]!
1/!
1^!
0`!
1]!
0^!
1a!
0_!
1`!
0b!
1_!
0`!
1c!
0a!
1b!
0d!
1a!
0b!
0e!
0c!
1d!
0f!
1c!
0d!
0g!
0+!
0,!
1.!
01!
12!
03!
04!
15!
17!
19!
1;!
1=!
1?!
1A!
1C!
1E!
1e!
1f!
05!
16!
13!
0/!
1,!
1h!
0e!
0f!
1g!
1+!
0,!
1-!
0.!
11!
02!
03!
15!
06!
09!
0;!
0=!
0?!
0A!
0C!
0E!
1/!
0h!
0g!
0+!
0-!
00!
01!
12!
05!
16!
19!
1;!
1=!
1?!
1A!
1C!
1E!
07!
08!
13!
11!
1.!
10!
1,!
1h!
01!
0/!
09!
1:!
0;!
0<!
0=!
1>!
0?!
0@!
0A!
1B!
0C!
0D!
0E!
#420000
0A
0N
0$!
#435000
1A
1N
1$!
1w!
1u!
0t!
0s!
1v!
1y!
0{!
1g!
1+!
1X!
11!
02!
0[!
0.!
00!
0,!
1-!
0%!
1*!
0g!
0+!
1.!
01!
12!
1/!
1\!
03!
1,!
0-!
0h!
0w
1u
1s
0t
1v
0.!
0]!
13!
0/!
0,!
1-!
1h!
0l
1n
1p
0o
1m
1/
1-
0+
1.!
1^!
1/!
0.
1,
0_!
0/!
1`!
0a!
1b!
0c!
1d!
1e!
1f!
1g!
1+!
1,!
0.!
11!
02!
03!
15!
06!
17!
18!
19!
0:!
1;!
1<!
1=!
0>!
1?!
1@!
1A!
0B!
1C!
1D!
1E!
0E!
0C!
0A!
0?!
0=!
0;!
09!
07!
13!
14!
1/!
0,!
0h!
05!
#450000
0A
0N
0$!
#465000
1A
1N
1$!
0w!
0u!
1t!
1s!
0v!
0y!
1{!
0g!
0+!
0X!
01!
12!
1[!
1.!
10!
1,!
0-!
0Y!
1%!
0*!
1g!
1+!
1Z!
0.!
11!
02!
0/!
0\!
03!
04!
1Y!
0,!
1-!
1h!
1w
0u
0s
1t
0v
1.!
0Z!
15!
1]!
13!
14!
1/!
0[!
1,!
0-!
0h!
1l
0n
0p
1o
0m
0/
0-
1+
0.!
1\!
05!
0^!
1[!
0/!
1.
0,
0\!
1_!
0]!
1/!
1^!
0`!
1]!
0^!
1a!
0_!
1`!
0b!
1_!
0`!
1c!
0a!
1b!
0d!
1a!
0b!
0e!
0c!
1d!
0f!
1c!
0d!
0g!
0+!
0,!
1.!
01!
12!
03!
04!
15!
17!
19!
1;!
1=!
1?!
1A!
1C!
1E!
1e!
1f!
05!
16!
13!
0/!
1,!
1h!
0e!
0f!
1g!
1+!
0,!
1-!
0.!
11!
02!
03!
15!
06!
09!
0;!
0=!
0?!
0A!
0C!
0E!
1/!
0h!
0g!
0+!
0-!
00!
01!
12!
05!
16!
19!
1;!
1=!
1?!
1A!
1C!
1E!
07!
08!
13!
11!
1.!
10!
1,!
1h!
01!
0/!
09!
1:!
0;!
0<!
0=!
1>!
0?!
0@!
0A!
1B!
0C!
0D!
0E!
#480000
0A
0N
0$!
#495000
1A
1N
1$!
1w!
1u!
0t!
0s!
1v!
1y!
0{!
1g!
1+!
1X!
11!
02!
0[!
0.!
00!
0,!
1-!
0%!
1*!
0g!
0+!
1.!
01!
12!
1/!
1\!
03!
1,!
0-!
0h!
0w
1u
1s
0t
1v
0.!
0]!
13!
0/!
0,!
1-!
1h!
0l
1n
1p
0o
1m
1/
1-
0+
1.!
1^!
1/!
0.
1,
0_!
0/!
1`!
0a!
1b!
0c!
1d!
1e!
1f!
1g!
1+!
1,!
0.!
11!
02!
03!
15!
06!
17!
18!
19!
0:!
1;!
1<!
1=!
0>!
1?!
1@!
1A!
0B!
1C!
1D!
1E!
0E!
0C!
0A!
0?!
0=!
0;!
09!
07!
13!
14!
1/!
0,!
0h!
05!
#510000
0A
0N
0$!
#520000
0:
0;
1<
1=
1?
1`
1^
1]
0\
0[
0O!
0P!
1Q!
1R!
1T!
0Y!
1[!
0\!
1]!
1Z!
0[!
0^!
1_!
0`!
1a!
0b!
1c!
0d!
0e!
0f!
0g!
0+!
1,!
0-!
1.!
01!
12!
03!
04!
15!
17!
19!
1;!
1=!
1?!
1A!
1C!
1E!
05!
16!
13!
0/!
0.!
0,!
1-!
1h!
1.!
1/!
07!
08!
09!
1:!
0/!
0;!
0<!
0=!
1>!
0?!
0@!
0A!
1B!
0C!
0D!
0E!
#525000
1A
1N
1$!
0w!
0u!
1,!
0-!
1%!
0*!
0W!
1g!
1+!
0.!
0u
0s
1/!
0,!
0h!
0n
0p
0/
0-
#540000
0A
0N
0$!
#555000
1A
1N
1$!
1w!
1t!
0v!
0y!
1{!
0g!
0+!
1.!
10!
0%!
1*!
1W!
0X!
1g!
11!
02!
0/!
1,!
1h!
1s
1t
0v
03!
0h!
1p
1o
0m
1/
1.
0,
#570000
0A
0N
0$!
#585000
1A
1N
1$!
0w!
1u!
0t!
1s!
0r!
1y!
13!
14!
1\!
01!
12!
1[!
0.!
00!
0,!
1-!
1Y!
1%!
0*!
0W!
1X!
0g!
0Z!
1.!
11!
1/!
0\!
03!
04!
0]!
15!
06!
0x
1w
1u
0s
1v
17!
18!
1^!
05!
16!
1]!
0/!
1h!
0Y!
0k
1l
1n
0p
1m
0/
1-
1+
0*
1Z!
0^!
07!
08!
0_!
19!
0:!
1,
1;!
1<!
1`!
09!
1:!
1_!
0`!
0;!
0<!
0a!
1=!
0>!
1?!
1@!
1b!
0=!
1>!
1a!
0b!
0?!
0@!
0c!
1A!
0B!
1C!
1D!
1d!
0A!
1B!
1c!
0d!
0C!
0D!
1e!
1E!
1f!
0E!
0e!
0f!
1g!
1+!
1,!
0.!
01!
13!
14!
15!
06!
17!
18!
19!
0:!
1;!
1<!
1=!
0>!
1?!
1@!
1A!
0B!
1C!
1D!
1E!
1/!
0h!
0g!
0+!
0-!
1.!
11!
03!
04!
05!
16!
0/!
0.!
0,!
1-!
1h!
1.!
1/!
07!
08!
09!
1:!
0/!
0;!
0<!
0=!
1>!
0?!
0@!
0A!
1B!
0C!
0D!
0E!
#600000
0A
0N
0$!
#615000
1A
1N
1$!
1w!
0u!
1v!
0{!
1g!
1+!
1,!
0-!
0%!
1*!
1W!
0g!
0+!
0.!
0,!
0h!
0u
1s
0t
1/!
1,!
1h!
0n
1p
0o
1/
0-
0.
#630000
0A
0N
0$!
#645000
1A
1N
1$!
0w!
1u!
1t!
0y!
1.!
10!
0,!
1-!
1%!
0*!
0W!
1g!
1+!
0.!
00!
01!
0/!
1u
0s
0v
11!
1/!
1,!
0-!
0h!
1n
0p
0m
0/
1-
1.!
10!
0,
01!
0/!
#660000
0A
0N
0$!
#675000
1A
1N
1$!
1w!
0t!
0s!
0v!
1y!
1{!
0g!
0+!
11!
02!
0[!
0.!
00!
0%!
1*!
1W!
0X!
1g!
01!
12!
1/!
1\!
13!
14!
0,!
1-!
1h!
0w
1s
1t
1v
1.!
15!
06!
0]!
03!
04!
0h!
1Y!
0l
1p
1o
1m
1/
0+
0Z!
05!
16!
1^!
17!
18!
0/!
1.
1,
19!
0:!
0_!
07!
08!
1[!
0\!
09!
1:!
1`!
1;!
1<!
1=!
0>!
0a!
0;!
0<!
1]!
0^!
0=!
1>!
1b!
1?!
1@!
1A!
0B!
0c!
0?!
0@!
1_!
0`!
0A!
1B!
1d!
1C!
1D!
1E!
1e!
0C!
0D!
1a!
0b!
0E!
1f!
0g!
1,!
0.!
11!
02!
13!
14!
15!
06!
17!
18!
19!
0:!
1;!
1<!
1=!
0>!
1?!
1@!
1A!
0B!
1C!
1D!
1E!
1c!
0d!
0E!
0C!
0A!
0?!
0=!
0;!
09!
07!
05!
03!
1/!
1h!
0e!
0f!
1g!
0,!
1.!
01!
12!
13!
15!
17!
19!
1;!
1=!
1?!
1A!
1C!
1E!
03!
04!
0/!
0h!
05!
16!
07!
08!
09!
1:!
0;!
0<!
0=!
1>!
0?!
0@!
0A!
1B!
0C!
0D!
0E!
#690000
0A
0N
0$!
#705000
1A
1N
1$!
0w!
0u!
1,!
0-!
0Y!
1%!
0*!
0W!
1X!
0g!
1Z!
0.!
0u
0s
1/!
0[!
1h!
0n
0p
0/
0-
1\!
0]!
1^!
0_!
1`!
0a!
1b!
0c!
1d!
1e!
1f!
1g!
1+!
0,!
1-!
1.!
10!
11!
02!
13!
14!
15!
06!
17!
18!
19!
0:!
1;!
1<!
1=!
0>!
1?!
1@!
1A!
0B!
1C!
1D!
1E!
0E!
0C!
0A!
0?!
0=!
0;!
09!
07!
05!
03!
01!
0/!
0.!
00!
1,!
0-!
0h!
1.!
10!
11!
1/!
01!
0/!
#720000
0A
0N
0$!
#735000
1A
1N
1$!
1w!
1u!
0,!
1-!
0%!
1*!
1W!
0X!
0g!
0+!
0.!
00!
1u
1s
11!
1/!
1,!
1h!
1Y!
1n
1p
1/
1-
0Z!
1[!
0\!
1]!
0^!
1_!
0`!
1a!
0b!
1c!
0d!
0e!
0f!
1g!
0,!
1.!
01!
12!
13!
15!
17!
19!
1;!
1=!
1?!
1A!
1C!
1E!
03!
04!
0/!
0h!
05!
16!
07!
08!
09!
1:!
0;!
0<!
0=!
1>!
0?!
0@!
0A!
1B!
0C!
0D!
0E!
#750000
0A
0N
0$!
#765000
1A
1N
1$!
0w!
0u!
1,!
0-!
0Y!
1%!
0*!
0W!
1X!
0g!
1Z!
0.!
0u
0s
1/!
0[!
1h!
0n
0p
0/
0-
1\!
0]!
1^!
0_!
1`!
0a!
1b!
0c!
1d!
1e!
1f!
1g!
1+!
0,!
1-!
1.!
10!
11!
02!
13!
14!
15!
06!
17!
18!
19!
0:!
1;!
1<!
1=!
0>!
1?!
1@!
1A!
0B!
1C!
1D!
1E!
0E!
0C!
0A!
0?!
0=!
0;!
09!
07!
05!
03!
01!
0/!
0.!
00!
1,!
0-!
0h!
1.!
10!
11!
1/!
01!
0/!
#780000
0A
0N
0$!
