simulation/qsim/Forno.msim.vcd
$comment
	File created using the following command:
		vcd file Forno.msim.vcd -direction
$end
$date
	Fri May 17 16:42:26 2024
$end
$version
	Questa Intel Starter FPGA Edition Version 2021.2
$end
$timescale
	1ps
$end

$scope module fornofsm_vhd_vec_tst $end
$var wire 1 ! actualState [1] $end
$var wire 1 " actualState [0] $end
$var wire 1 # clk $end
$var wire 1 $ cookEnable $end
$var wire 1 % endTimer $end
$var wire 1 & leaveFinish $end
$var wire 1 ' reset $end
$var wire 1 ( timeIdle [15] $end
$var wire 1 ) timeIdle [14] $end
$var wire 1 * timeIdle [13] $end
$var wire 1 + timeIdle [12] $end
$var wire 1 , timeIdle [11] $end
$var wire 1 - timeIdle [10] $end
$var wire 1 . timeIdle [9] $end
$var wire 1 / timeIdle [8] $end
$var wire 1 0 timeIdle [7] $end
$var wire 1 1 timeIdle [6] $end
$var wire 1 2 timeIdle [5] $end
$var wire 1 3 timeIdle [4] $end
$var wire 1 4 timeIdle [3] $end
$var wire 1 5 timeIdle [2] $end
$var wire 1 6 timeIdle [1] $end
$var wire 1 7 timeIdle [0] $end
$var wire 1 8 timeMaxCooking [15] $end
$var wire 1 9 timeMaxCooking [14] $end
$var wire 1 : timeMaxCooking [13] $end
$var wire 1 ; timeMaxCooking [12] $end
$var wire 1 < timeMaxCooking [11] $end
$var wire 1 = timeMaxCooking [10] $end
$var wire 1 > timeMaxCooking [9] $end
$var wire 1 ? timeMaxCooking [8] $end
$var wire 1 @ timeMaxCooking [7] $end
$var wire 1 A timeMaxCooking [6] $end
$var wire 1 B timeMaxCooking [5] $end
$var wire 1 C timeMaxCooking [4] $end
$var wire 1 D timeMaxCooking [3] $end
$var wire 1 E timeMaxCooking [2] $end
$var wire 1 F timeMaxCooking [1] $end
$var wire 1 G timeMaxCooking [0] $end
$var wire 1 H timerStart $end
$var wire 1 I timeToExecute [15] $end
$var wire 1 J timeToExecute [14] $end
$var wire 1 K timeToExecute [13] $end
$var wire 1 L timeToExecute [12] $end
$var wire 1 M timeToExecute [11] $end
$var wire 1 N timeToExecute [10] $end
$var wire 1 O timeToExecute [9] $end
$var wire 1 P timeToExecute [8] $end
$var wire 1 Q timeToExecute [7] $end
$var wire 1 R timeToExecute [6] $end
$var wire 1 S timeToExecute [5] $end
$var wire 1 T timeToExecute [4] $end
$var wire 1 U timeToExecute [3] $end
$var wire 1 V timeToExecute [2] $end
$var wire 1 W timeToExecute [1] $end
$var wire 1 X timeToExecute [0] $end

$scope module i1 $end
$var wire 1 Y gnd $end
$var wire 1 Z vcc $end
$var wire 1 [ unknown $end
$var wire 1 \ devoe $end
$var wire 1 ] devclrn $end
$var wire 1 ^ devpor $end
$var wire 1 _ ww_devoe $end
$var wire 1 ` ww_devclrn $end
$var wire 1 a ww_devpor $end
$var wire 1 b ww_clk $end
$var wire 1 c ww_reset $end
$var wire 1 d ww_endTimer $end
$var wire 1 e ww_leaveFinish $end
$var wire 1 f ww_timeMaxCooking [15] $end
$var wire 1 g ww_timeMaxCooking [14] $end
$var wire 1 h ww_timeMaxCooking [13] $end
$var wire 1 i ww_timeMaxCooking [12] $end
$var wire 1 j ww_timeMaxCooking [11] $end
$var wire 1 k ww_timeMaxCooking [10] $end
$var wire 1 l ww_timeMaxCooking [9] $end
$var wire 1 m ww_timeMaxCooking [8] $end
$var wire 1 n ww_timeMaxCooking [7] $end
$var wire 1 o ww_timeMaxCooking [6] $end
$var wire 1 p ww_timeMaxCooking [5] $end
$var wire 1 q ww_timeMaxCooking [4] $end
$var wire 1 r ww_timeMaxCooking [3] $end
$var wire 1 s ww_timeMaxCooking [2] $end
$var wire 1 t ww_timeMaxCooking [1] $end
$var wire 1 u ww_timeMaxCooking [0] $end
$var wire 1 v ww_timeIdle [15] $end
$var wire 1 w ww_timeIdle [14] $end
$var wire 1 x ww_timeIdle [13] $end
$var wire 1 y ww_timeIdle [12] $end
$var wire 1 z ww_timeIdle [11] $end
$var wire 1 { ww_timeIdle [10] $end
$var wire 1 | ww_timeIdle [9] $end
$var wire 1 } ww_timeIdle [8] $end
$var wire 1 ~ ww_timeIdle [7] $end
$var wire 1 !! ww_timeIdle [6] $end
$var wire 1 "! ww_timeIdle [5] $end
$var wire 1 #! ww_timeIdle [4] $end
$var wire 1 $! ww_timeIdle [3] $end
$var wire 1 %! ww_timeIdle [2] $end
$var wire 1 &! ww_timeIdle [1] $end
$var wire 1 '! ww_timeIdle [0] $end
$var wire 1 (! ww_cookEnable $end
$var wire 1 )! ww_timerStart $end
$var wire 1 *! ww_timeToExecute [15] $end
$var wire 1 +! ww_timeToExecute [14] $end
$var wire 1 ,! ww_timeToExecute [13] $end
$var wire 1 -! ww_timeToExecute [12] $end
$var wire 1 .! ww_timeToExecute [11] $end
$var wire 1 /! ww_timeToExecute [10] $end
$var wire 1 0! ww_timeToExecute [9] $end
$var wire 1 1! ww_timeToExecute [8] $end
$var wire 1 2! ww_timeToExecute [7] $end
$var wire 1 3! ww_timeToExecute [6] $end
$var wire 1 4! ww_timeToExecute [5] $end
$var wire 1 5! ww_timeToExecute [4] $end
$var wire 1 6! ww_timeToExecute [3] $end
$var wire 1 7! ww_timeToExecute [2] $end
$var wire 1 8! ww_timeToExecute [1] $end
$var wire 1 9! ww_timeToExecute [0] $end
$var wire 1 :! ww_actualState [1] $end
$var wire 1 ;! ww_actualState [0] $end
$var wire 1 <! \cookEnable~output_o\ $end
$var wire 1 =! \timerStart~output_o\ $end
$var wire 1 >! \timeToExecute[0]~output_o\ $end
$var wire 1 ?! \timeToExecute[1]~output_o\ $end
$var wire 1 @! \timeToExecute[2]~output_o\ $end
$var wire 1 A! \timeToExecute[3]~output_o\ $end
$var wire 1 B! \timeToExecute[4]~output_o\ $end
$var wire 1 C! \timeToExecute[5]~output_o\ $end
$var wire 1 D! \timeToExecute[6]~output_o\ $end
$var wire 1 E! \timeToExecute[7]~output_o\ $end
$var wire 1 F! \timeToExecute[8]~output_o\ $end
$var wire 1 G! \timeToExecute[9]~output_o\ $end
$var wire 1 H! \timeToExecute[10]~output_o\ $end
$var wire 1 I! \timeToExecute[11]~output_o\ $end
$var wire 1 J! \timeToExecute[12]~output_o\ $end
$var wire 1 K! \timeToExecute[13]~output_o\ $end
$var wire 1 L! \timeToExecute[14]~output_o\ $end
$var wire 1 M! \timeToExecute[15]~output_o\ $end
$var wire 1 N! \actualState[0]~output_o\ $end
$var wire 1 O! \actualState[1]~output_o\ $end
$var wire 1 P! \clk~input_o\ $end
$var wire 1 Q! \endTimer~input_o\ $end
$var wire 1 R! \reset~input_o\ $end
$var wire 1 S! \leaveFinish~input_o\ $end
$var wire 1 T! \Selector3~0_combout\ $end
$var wire 1 U! \s_currentState~6_combout\ $end
$var wire 1 V! \s_currentState.FINISH~q\ $end
$var wire 1 W! \Selector1~0_combout\ $end
$var wire 1 X! \s_currentState~7_combout\ $end
$var wire 1 Y! \s_currentState.IDLE~q\ $end
$var wire 1 Z! \s_currentState~5_combout\ $end
$var wire 1 [! \s_currentState.COOK~q\ $end
$var wire 1 \! \s_stateChanged~0_combout\ $end
$var wire 1 ]! \s_stateChanged~1_combout\ $end
$var wire 1 ^! \s_stateChanged~2_combout\ $end
$var wire 1 _! \s_stateChanged~q\ $end
$var wire 1 `! \timerStart~0_combout\ $end
$var wire 1 a! \timeMaxCooking[0]~input_o\ $end
$var wire 1 b! \timeIdle[0]~input_o\ $end
$var wire 1 c! \Selector0~0_combout\ $end
$var wire 1 d! \timeToExecute[0]$latch~combout\ $end
$var wire 1 e! \timeMaxCooking[1]~input_o\ $end
$var wire 1 f! \timeIdle[1]~input_o\ $end
$var wire 1 g! \Selector4~0_combout\ $end
$var wire 1 h! \timeToExecute[1]$latch~combout\ $end
$var wire 1 i! \timeMaxCooking[2]~input_o\ $end
$var wire 1 j! \timeIdle[2]~input_o\ $end
$var wire 1 k! \Selector5~0_combout\ $end
$var wire 1 l! \timeToExecute[2]$latch~combout\ $end
$var wire 1 m! \timeMaxCooking[3]~input_o\ $end
$var wire 1 n! \timeIdle[3]~input_o\ $end
$var wire 1 o! \Selector6~0_combout\ $end
$var wire 1 p! \timeToExecute[3]$latch~combout\ $end
$var wire 1 q! \timeMaxCooking[4]~input_o\ $end
$var wire 1 r! \timeIdle[4]~input_o\ $end
$var wire 1 s! \Selector7~0_combout\ $end
$var wire 1 t! \timeToExecute[4]$latch~combout\ $end
$var wire 1 u! \timeMaxCooking[5]~input_o\ $end
$var wire 1 v! \timeIdle[5]~input_o\ $end
$var wire 1 w! \Selector8~0_combout\ $end
$var wire 1 x! \timeToExecute[5]$latch~combout\ $end
$var wire 1 y! \timeMaxCooking[6]~input_o\ $end
$var wire 1 z! \timeIdle[6]~input_o\ $end
$var wire 1 {! \Selector9~0_combout\ $end
$var wire 1 |! \timeToExecute[6]$latch~combout\ $end
$var wire 1 }! \timeMaxCooking[7]~input_o\ $end
$var wire 1 ~! \timeIdle[7]~input_o\ $end
$var wire 1 !" \Selector10~0_combout\ $end
$var wire 1 "" \timeToExecute[7]$latch~combout\ $end
$var wire 1 #" \timeMaxCooking[8]~input_o\ $end
$var wire 1 $" \timeIdle[8]~input_o\ $end
$var wire 1 %" \Selector11~0_combout\ $end
$var wire 1 &" \timeToExecute[8]$latch~combout\ $end
$var wire 1 '" \timeMaxCooking[9]~input_o\ $end
$var wire 1 (" \timeIdle[9]~input_o\ $end
$var wire 1 )" \Selector12~0_combout\ $end
$var wire 1 *" \timeToExecute[9]$latch~combout\ $end
$var wire 1 +" \timeMaxCooking[10]~input_o\ $end
$var wire 1 ," \timeIdle[10]~input_o\ $end
$var wire 1 -" \Selector13~0_combout\ $end
$var wire 1 ." \timeToExecute[10]$latch~combout\ $end
$var wire 1 /" \timeMaxCooking[11]~input_o\ $end
$var wire 1 0" \timeIdle[11]~input_o\ $end
$var wire 1 1" \Selector14~0_combout\ $end
$var wire 1 2" \timeToExecute[11]$latch~combout\ $end
$var wire 1 3" \timeMaxCooking[12]~input_o\ $end
$var wire 1 4" \timeIdle[12]~input_o\ $end
$var wire 1 5" \Selector15~0_combout\ $end
$var wire 1 6" \timeToExecute[12]$latch~combout\ $end
$var wire 1 7" \timeMaxCooking[13]~input_o\ $end
$var wire 1 8" \timeIdle[13]~input_o\ $end
$var wire 1 9" \Selector16~0_combout\ $end
$var wire 1 :" \timeToExecute[13]$latch~combout\ $end
$var wire 1 ;" \timeMaxCooking[14]~input_o\ $end
$var wire 1 <" \timeIdle[14]~input_o\ $end
$var wire 1 =" \Selector17~0_combout\ $end
$var wire 1 >" \timeToExecute[14]$latch~combout\ $end
$var wire 1 ?" \timeMaxCooking[15]~input_o\ $end
$var wire 1 @" \timeIdle[15]~input_o\ $end
$var wire 1 A" \Selector18~0_combout\ $end
$var wire 1 B" \timeToExecute[15]$latch~combout\ $end
$upscope $end
$upscope $end
$enddefinitions $end
#0
$dumpvars
0#
0$
0%
0&
0'
0H
0Y
1Z
x[
1\
1]
1^
1_
1`
1a
0b
0c
0d
0e
0(!
0)!
0<!
0=!
0>!
0?!
1@!
0A!
1B!
1C!
0D!
1E!
0F!
0G!
0H!
0I!
0J!
0K!
0L!
0M!
0N!
0O!
0P!
0Q!
0R!
0S!
0T!
0U!
0V!
1W!
0X!
0Y!
0Z!
0[!
0\!
1]!
0^!
0_!
0`!
0a!
0b!
0c!
0d!
1e!
0f!
0g!
0h!
1i!
1j!
1k!
1l!
1m!
0n!
0o!
0p!
1q!
1r!
1s!
1t!
0u!
1v!
1w!
1x!
0y!
0z!
0{!
0|!
0}!
1~!
1!"
1""
0#"
0$"
0%"
0&"
0'"
0("
0)"
0*"
0+"
0,"
0-"
0."
0/"
00"
01"
02"
03"
04"
05"
06"
07"
08"
09"
0:"
0;"
0<"
0="
0>"
0?"
0@"
0A"
0B"
0(
0)
0*
0+
0,
0-
0.
0/
10
01
12
13
04
15
06
07
08
09
0:
0;
0<
0=
0>
0?
0@
0A
0B
1C
1D
1E
1F
0G
0f
0g
0h
0i
0j
0k
0l
0m
0n
0o
0p
1q
1r
1s
1t
0u
0v
0w
0x
0y
0z
0{
0|
0}
1~
0!!
1"!
1#!
0$!
1%!
0&!
0'!
0!
0"
0I
0J
0K
0L
0M
0N
0O
0P
1Q
0R
1S
1T
0U
1V
0W
0X
0*!
0+!
0,!
0-!
0.!
0/!
00!
01!
12!
03!
14!
15!
06!
17!
08!
09!
0:!
0;!
$end
#25000
1#
1b
1P!
#50000
0#
0b
0P!
#75000
1#
1b
1P!
#100000
0#
0b
0P!
#125000
1#
1b
1P!
#150000
0#
0b
0P!
#160000
1%
1d
1Q!
0W!
1Z!
1^!
1X!
#175000
1#
1b
1P!
1Y!
1[!
1_!
1`!
1T!
1\!
1g!
1o!
0w!
0!"
0Z!
0""
0x!
1p!
1h!
1U!
1<!
1N!
1(!
1;!
1=!
1$
1"
1)!
1?!
1A!
0C!
0E!
1H
18!
16!
04!
02!
1W
1U
0S
0Q
#190000
0%
0d
0Q!
0T!
1Z!
0\!
0^!
0U!
#200000
0#
0b
0P!
#225000
1#
1b
1P!
0_!
0`!
0=!
0)!
0H
#250000
0#
0b
0P!
#275000
1#
1b
1P!
#300000
0#
0b
0P!
#310000
1%
1d
1Q!
1T!
0Z!
1\!
1^!
1U!
#325000
1#
1b
1P!
1V!
0[!
1_!
0]!
0g!
0o!
1w!
1!"
0\!
0^!
0<!
0N!
1O!
0(!
0;!
1:!
0$
0"
1!
#340000
0%
0d
0Q!
#350000
0#
0b
0P!
#375000
1#
1b
1P!
0_!
#400000
0#
0b
0P!
#425000
1#
1b
1P!
#450000
0#
0b
0P!
#475000
1#
1b
1P!
#500000
0#
0b
0P!
#510000
1%
1d
1Q!
#525000
1#
1b
1P!
#540000
0%
0d
0Q!
#550000
0#
0b
0P!
#575000
1#
1b
1P!
#600000
0#
0b
0P!
#625000
1#
1b
1P!
#650000
0#
0b
0P!
#660000
1%
1d
1Q!
#675000
1#
1b
1P!
#690000
0%
0d
0Q!
#700000
0#
0b
0P!
#725000
1#
1b
1P!
#750000
0#
0b
0P!
#775000
1#
1b
1P!
#800000
0#
0b
0P!
#825000
1#
1b
1P!
#850000
0#
0b
0P!
#875000
1#
1b
1P!
#900000
0#
0b
0P!
#925000
1#
1b
1P!
#950000
0#
0b
0P!
#975000
1#
1b
1P!
