simulation/qsim/Forno.msim.vcd
$comment
	File created using the following command:
		vcd file Forno.msim.vcd -direction
$end
$date
	Sun May 19 20:52:00 2024
$end
$version
	Questa Intel Starter FPGA Edition Version 2021.2
$end
$timescale
	1ps
$end

$scope module registertime_vhd_vec_tst $end
$var wire 1 ! clk $end
$var wire 1 " decrementCook $end
$var wire 1 # decrementIdle $end
$var wire 1 $ enable $end
$var wire 1 % finishTime $end
$var wire 1 & incrementCook $end
$var wire 1 ' incrementIdle $end
$var wire 1 ( reset $end
$var wire 1 ) runCook $end
$var wire 1 * runIdle $end
$var wire 1 + timeOutCook [15] $end
$var wire 1 , timeOutCook [14] $end
$var wire 1 - timeOutCook [13] $end
$var wire 1 . timeOutCook [12] $end
$var wire 1 / timeOutCook [11] $end
$var wire 1 0 timeOutCook [10] $end
$var wire 1 1 timeOutCook [9] $end
$var wire 1 2 timeOutCook [8] $end
$var wire 1 3 timeOutCook [7] $end
$var wire 1 4 timeOutCook [6] $end
$var wire 1 5 timeOutCook [5] $end
$var wire 1 6 timeOutCook [4] $end
$var wire 1 7 timeOutCook [3] $end
$var wire 1 8 timeOutCook [2] $end
$var wire 1 9 timeOutCook [1] $end
$var wire 1 : timeOutCook [0] $end
$var wire 1 ; timeOutIdle [15] $end
$var wire 1 < timeOutIdle [14] $end
$var wire 1 = timeOutIdle [13] $end
$var wire 1 > timeOutIdle [12] $end
$var wire 1 ? timeOutIdle [11] $end
$var wire 1 @ timeOutIdle [10] $end
$var wire 1 A timeOutIdle [9] $end
$var wire 1 B timeOutIdle [8] $end
$var wire 1 C timeOutIdle [7] $end
$var wire 1 D timeOutIdle [6] $end
$var wire 1 E timeOutIdle [5] $end
$var wire 1 F timeOutIdle [4] $end
$var wire 1 G timeOutIdle [3] $end
$var wire 1 H timeOutIdle [2] $end
$var wire 1 I timeOutIdle [1] $end
$var wire 1 J timeOutIdle [0] $end

$scope module i1 $end
$var wire 1 K gnd $end
$var wire 1 L vcc $end
$var wire 1 M unknown $end
$var wire 1 N devoe $end
$var wire 1 O devclrn $end
$var wire 1 P devpor $end
$var wire 1 Q ww_devoe $end
$var wire 1 R ww_devclrn $end
$var wire 1 S ww_devpor $end
$var wire 1 T ww_clk $end
$var wire 1 U ww_reset $end
$var wire 1 V ww_enable $end
$var wire 1 W ww_runCook $end
$var wire 1 X ww_runIdle $end
$var wire 1 Y ww_incrementIdle $end
$var wire 1 Z ww_decrementIdle $end
$var wire 1 [ ww_incrementCook $end
$var wire 1 \ ww_decrementCook $end
$var wire 1 ] ww_finishTime $end
$var wire 1 ^ ww_timeOutIdle [15] $end
$var wire 1 _ ww_timeOutIdle [14] $end
$var wire 1 ` ww_timeOutIdle [13] $end
$var wire 1 a ww_timeOutIdle [12] $end
$var wire 1 b ww_timeOutIdle [11] $end
$var wire 1 c ww_timeOutIdle [10] $end
$var wire 1 d ww_timeOutIdle [9] $end
$var wire 1 e ww_timeOutIdle [8] $end
$var wire 1 f ww_timeOutIdle [7] $end
$var wire 1 g ww_timeOutIdle [6] $end
$var wire 1 h ww_timeOutIdle [5] $end
$var wire 1 i ww_timeOutIdle [4] $end
$var wire 1 j ww_timeOutIdle [3] $end
$var wire 1 k ww_timeOutIdle [2] $end
$var wire 1 l ww_timeOutIdle [1] $end
$var wire 1 m ww_timeOutIdle [0] $end
$var wire 1 n ww_timeOutCook [15] $end
$var wire 1 o ww_timeOutCook [14] $end
$var wire 1 p ww_timeOutCook [13] $end
$var wire 1 q ww_timeOutCook [12] $end
$var wire 1 r ww_timeOutCook [11] $end
$var wire 1 s ww_timeOutCook [10] $end
$var wire 1 t ww_timeOutCook [9] $end
$var wire 1 u ww_timeOutCook [8] $end
$var wire 1 v ww_timeOutCook [7] $end
$var wire 1 w ww_timeOutCook [6] $end
$var wire 1 x ww_timeOutCook [5] $end
$var wire 1 y ww_timeOutCook [4] $end
$var wire 1 z ww_timeOutCook [3] $end
$var wire 1 { ww_timeOutCook [2] $end
$var wire 1 | ww_timeOutCook [1] $end
$var wire 1 } ww_timeOutCook [0] $end
$var wire 1 ~ \finishTime~output_o\ $end
$var wire 1 !! \timeOutIdle[0]~output_o\ $end
$var wire 1 "! \timeOutIdle[1]~output_o\ $end
$var wire 1 #! \timeOutIdle[2]~output_o\ $end
$var wire 1 $! \timeOutIdle[3]~output_o\ $end
$var wire 1 %! \timeOutIdle[4]~output_o\ $end
$var wire 1 &! \timeOutIdle[5]~output_o\ $end
$var wire 1 '! \timeOutIdle[6]~output_o\ $end
$var wire 1 (! \timeOutIdle[7]~output_o\ $end
$var wire 1 )! \timeOutIdle[8]~output_o\ $end
$var wire 1 *! \timeOutIdle[9]~output_o\ $end
$var wire 1 +! \timeOutIdle[10]~output_o\ $end
$var wire 1 ,! \timeOutIdle[11]~output_o\ $end
$var wire 1 -! \timeOutIdle[12]~output_o\ $end
$var wire 1 .! \timeOutIdle[13]~output_o\ $end
$var wire 1 /! \timeOutIdle[14]~output_o\ $end
$var wire 1 0! \timeOutIdle[15]~output_o\ $end
$var wire 1 1! \timeOutCook[0]~output_o\ $end
$var wire 1 2! \timeOutCook[1]~output_o\ $end
$var wire 1 3! \timeOutCook[2]~output_o\ $end
$var wire 1 4! \timeOutCook[3]~output_o\ $end
$var wire 1 5! \timeOutCook[4]~output_o\ $end
$var wire 1 6! \timeOutCook[5]~output_o\ $end
$var wire 1 7! \timeOutCook[6]~output_o\ $end
$var wire 1 8! \timeOutCook[7]~output_o\ $end
$var wire 1 9! \timeOutCook[8]~output_o\ $end
$var wire 1 :! \timeOutCook[9]~output_o\ $end
$var wire 1 ;! \timeOutCook[10]~output_o\ $end
$var wire 1 <! \timeOutCook[11]~output_o\ $end
$var wire 1 =! \timeOutCook[12]~output_o\ $end
$var wire 1 >! \timeOutCook[13]~output_o\ $end
$var wire 1 ?! \timeOutCook[14]~output_o\ $end
$var wire 1 @! \timeOutCook[15]~output_o\ $end
$var wire 1 A! \clk~input_o\ $end
$var wire 1 B! \Add1~0_combout\ $end
$var wire 1 C! \reset~input_o\ $end
$var wire 1 D! \s_actualIdle[15]~3_combout\ $end
$var wire 1 E! \s_actualIdle[8]~4_combout\ $end
$var wire 1 F! \s_actualIdle[0]~5_combout\ $end
$var wire 1 G! \runIdle~input_o\ $end
$var wire 1 H! \incrementIdle~input_o\ $end
$var wire 1 I! \s_actualIdle[8]~6_combout\ $end
$var wire 1 J! \Add1~1\ $end
$var wire 1 K! \Add1~2_combout\ $end
$var wire 1 L! \Add1~5\ $end
$var wire 1 M! \Add1~6_combout\ $end
$var wire 1 N! \s_actualIdle[3]~10_combout\ $end
$var wire 1 O! \Add1~7\ $end
$var wire 1 P! \Add1~8_combout\ $end
$var wire 1 Q! \s_actualIdle[4]~11_combout\ $end
$var wire 1 R! \Add1~9\ $end
$var wire 1 S! \Add1~10_combout\ $end
$var wire 1 T! \s_actualIdle[5]~12_combout\ $end
$var wire 1 U! \Add1~11\ $end
$var wire 1 V! \Add1~12_combout\ $end
$var wire 1 W! \s_actualIdle[6]~13_combout\ $end
$var wire 1 X! \Add1~13\ $end
$var wire 1 Y! \Add1~14_combout\ $end
$var wire 1 Z! \s_actualIdle[7]~14_combout\ $end
$var wire 1 [! \Add1~15\ $end
$var wire 1 \! \Add1~16_combout\ $end
$var wire 1 ]! \s_actualIdle[8]~15_combout\ $end
$var wire 1 ^! \Add1~17\ $end
$var wire 1 _! \Add1~18_combout\ $end
$var wire 1 `! \s_actualIdle[9]~16_combout\ $end
$var wire 1 a! \Add1~19\ $end
$var wire 1 b! \Add1~20_combout\ $end
$var wire 1 c! \s_actualIdle[10]~17_combout\ $end
$var wire 1 d! \Add1~21\ $end
$var wire 1 e! \Add1~22_combout\ $end
$var wire 1 f! \s_actualIdle[11]~18_combout\ $end
$var wire 1 g! \Add1~23\ $end
$var wire 1 h! \Add1~24_combout\ $end
$var wire 1 i! \s_actualIdle[12]~19_combout\ $end
$var wire 1 j! \Add1~25\ $end
$var wire 1 k! \Add1~26_combout\ $end
$var wire 1 l! \s_actualIdle[13]~20_combout\ $end
$var wire 1 m! \Add1~27\ $end
$var wire 1 n! \Add1~29\ $end
$var wire 1 o! \Add1~30_combout\ $end
$var wire 1 p! \s_actualIdle[15]~22_combout\ $end
$var wire 1 q! \LessThan5~4_combout\ $end
$var wire 1 r! \s_actualIdle[8]~7_combout\ $end
$var wire 1 s! \s_actualIdle[1]~8_combout\ $end
$var wire 1 t! \Add1~3\ $end
$var wire 1 u! \Add1~4_combout\ $end
$var wire 1 v! \s_actualIdle[2]~9_combout\ $end
$var wire 1 w! \LessThan5~0_combout\ $end
$var wire 1 x! \LessThan5~1_combout\ $end
$var wire 1 y! \LessThan5~2_combout\ $end
$var wire 1 z! \LessThan5~3_combout\ $end
$var wire 1 {! \LessThan1~0_combout\ $end
$var wire 1 |! \s_actualIdle[14]~0_combout\ $end
$var wire 1 }! \enable~input_o\ $end
$var wire 1 ~! \decrementIdle~input_o\ $end
$var wire 1 !" \s_actualIdle[14]~1_combout\ $end
$var wire 1 "" \s_actualIdle[14]~2_combout\ $end
$var wire 1 #" \Add1~28_combout\ $end
$var wire 1 $" \s_actualIdle[14]~21_combout\ $end
$var wire 1 %" \LessThan5~5_combout\ $end
$var wire 1 &" \finishTime~reg0_q\ $end
$var wire 1 '" \Add3~0_combout\ $end
$var wire 1 (" \runCook~input_o\ $end
$var wire 1 )" \incrementCook~input_o\ $end
$var wire 1 *" \s_actualCook[11]~7_combout\ $end
$var wire 1 +" \Add3~1\ $end
$var wire 1 ," \Add3~2_combout\ $end
$var wire 1 -" \Add3~17\ $end
$var wire 1 ." \Add3~18_combout\ $end
$var wire 1 /" \s_actualCook[11]~5_combout\ $end
$var wire 1 0" \s_actualCook[9]~16_combout\ $end
$var wire 1 1" \Add3~19\ $end
$var wire 1 2" \Add3~20_combout\ $end
$var wire 1 3" \s_actualCook[10]~17_combout\ $end
$var wire 1 4" \Add3~21\ $end
$var wire 1 5" \Add3~22_combout\ $end
$var wire 1 6" \s_actualCook[11]~18_combout\ $end
$var wire 1 7" \Add3~23\ $end
$var wire 1 8" \Add3~24_combout\ $end
$var wire 1 9" \s_actualCook[12]~19_combout\ $end
$var wire 1 :" \Add3~25\ $end
$var wire 1 ;" \Add3~26_combout\ $end
$var wire 1 <" \s_actualCook[13]~20_combout\ $end
$var wire 1 =" \Add3~27\ $end
$var wire 1 >" \Add3~28_combout\ $end
$var wire 1 ?" \s_actualCook[14]~21_combout\ $end
$var wire 1 @" \LessThan2~2_combout\ $end
$var wire 1 A" \LessThan2~3_combout\ $end
$var wire 1 B" \LessThan2~4_combout\ $end
$var wire 1 C" \Add3~29\ $end
$var wire 1 D" \Add3~30_combout\ $end
$var wire 1 E" \s_actualCook[15]~22_combout\ $end
$var wire 1 F" \LessThan2~1_combout\ $end
$var wire 1 G" \s_actualCook[11]~3_combout\ $end
$var wire 1 H" \s_actualCook[1]~8_combout\ $end
$var wire 1 I" \Add3~3\ $end
$var wire 1 J" \Add3~4_combout\ $end
$var wire 1 K" \s_actualCook[2]~9_combout\ $end
$var wire 1 L" \Add3~5\ $end
$var wire 1 M" \Add3~6_combout\ $end
$var wire 1 N" \s_actualCook[3]~10_combout\ $end
$var wire 1 O" \Add3~7\ $end
$var wire 1 P" \Add3~8_combout\ $end
$var wire 1 Q" \s_actualCook[4]~11_combout\ $end
$var wire 1 R" \Add3~9\ $end
$var wire 1 S" \Add3~10_combout\ $end
$var wire 1 T" \s_actualCook[5]~12_combout\ $end
$var wire 1 U" \Add3~11\ $end
$var wire 1 V" \Add3~12_combout\ $end
$var wire 1 W" \s_actualCook[6]~13_combout\ $end
$var wire 1 X" \Add3~13\ $end
$var wire 1 Y" \Add3~14_combout\ $end
$var wire 1 Z" \s_actualCook[7]~14_combout\ $end
$var wire 1 [" \Add3~15\ $end
$var wire 1 \" \Add3~16_combout\ $end
$var wire 1 ]" \s_actualCook[8]~15_combout\ $end
$var wire 1 ^" \LessThan2~0_combout\ $end
$var wire 1 _" \LessThan3~0_combout\ $end
$var wire 1 `" \s_actualCook[14]~0_combout\ $end
$var wire 1 a" \decrementCook~input_o\ $end
$var wire 1 b" \s_actualCook[14]~1_combout\ $end
$var wire 1 c" \s_actualCook[14]~2_combout\ $end
$var wire 1 d" \s_actualCook[15]~4_combout\ $end
$var wire 1 e" \s_actualCook[0]~6_combout\ $end
$var wire 1 f" s_actualCook [15] $end
$var wire 1 g" s_actualCook [14] $end
$var wire 1 h" s_actualCook [13] $end
$var wire 1 i" s_actualCook [12] $end
$var wire 1 j" s_actualCook [11] $end
$var wire 1 k" s_actualCook [10] $end
$var wire 1 l" s_actualCook [9] $end
$var wire 1 m" s_actualCook [8] $end
$var wire 1 n" s_actualCook [7] $end
$var wire 1 o" s_actualCook [6] $end
$var wire 1 p" s_actualCook [5] $end
$var wire 1 q" s_actualCook [4] $end
$var wire 1 r" s_actualCook [3] $end
$var wire 1 s" s_actualCook [2] $end
$var wire 1 t" s_actualCook [1] $end
$var wire 1 u" s_actualCook [0] $end
$var wire 1 v" s_actualIdle [15] $end
$var wire 1 w" s_actualIdle [14] $end
$var wire 1 x" s_actualIdle [13] $end
$var wire 1 y" s_actualIdle [12] $end
$var wire 1 z" s_actualIdle [11] $end
$var wire 1 {" s_actualIdle [10] $end
$var wire 1 |" s_actualIdle [9] $end
$var wire 1 }" s_actualIdle [8] $end
$var wire 1 ~" s_actualIdle [7] $end
$var wire 1 !# s_actualIdle [6] $end
$var wire 1 "# s_actualIdle [5] $end
$var wire 1 ## s_actualIdle [4] $end
$var wire 1 $# s_actualIdle [3] $end
$var wire 1 %# s_actualIdle [2] $end
$var wire 1 &# s_actualIdle [1] $end
$var wire 1 '# s_actualIdle [0] $end
$var wire 1 (# ALT_INV_s_actualCook [3] $end
$var wire 1 )# ALT_INV_s_actualCook [2] $end
$var wire 1 *# ALT_INV_s_actualCook [1] $end
$var wire 1 +# ALT_INV_s_actualIdle [3] $end
$var wire 1 ,# ALT_INV_s_actualIdle [2] $end
$var wire 1 -# ALT_INV_s_actualIdle [1] $end
$upscope $end
$upscope $end
$enddefinitions $end
#0
$dumpvars
0!
0"
0#
1$
0%
0&
0'
0(
0)
1*
0K
1L
xM
1N
1O
1P
1Q
1R
1S
0T
0U
1V
0W
1X
0Y
0Z
0[
0\
0]
0~
0!!
1"!
0#!
1$!
0%!
0&!
0'!
0(!
0)!
0*!
0+!
0,!
0-!
0.!
0/!
00!
01!
12!
03!
14!
05!
06!
07!
08!
09!
0:!
0;!
0<!
0=!
0>!
0?!
0@!
0A!
1B!
0C!
1D!
0E!
1F!
1G!
0H!
1I!
0J!
0K!
1L!
1M!
0N!
0O!
0P!
0Q!
1R!
0S!
0T!
0U!
0V!
0W!
1X!
0Y!
0Z!
0[!
0\!
0]!
1^!
0_!
0`!
0a!
0b!
0c!
1d!
0e!
0f!
0g!
0h!
0i!
1j!
0k!
0l!
0m!
1n!
0o!
0p!
1q!
1r!
1s!
0t!
0u!
0v!
1w!
0x!
1y!
1z!
1{!
1|!
1}!
0~!
1!"
1""
0#"
0$"
0%"
0&"
1'"
0("
0)"
1*"
0+"
0,"
1-"
0."
1/"
00"
01"
02"
03"
14"
05"
06"
07"
08"
09"
1:"
0;"
0<"
0="
0>"
0?"
1@"
0A"
1B"
1C"
0D"
0E"
1F"
1G"
0H"
0I"
0J"
0K"
1L"
1M"
0N"
0O"
0P"
0Q"
1R"
0S"
0T"
0U"
0V"
0W"
1X"
0Y"
0Z"
0["
0\"
0]"
1^"
1_"
1`"
0a"
0b"
0c"
0d"
0e"
0f"
0g"
0h"
0i"
0j"
0k"
0l"
0m"
0n"
0o"
0p"
0q"
0r"
0s"
0t"
0u"
0v"
0w"
0x"
0y"
0z"
0{"
0|"
0}"
0~"
0!#
0"#
0##
0$#
0%#
0&#
0'#
1(#
x)#
1*#
1+#
x,#
1-#
0+
0,
0-
0.
0/
00
01
02
03
04
05
06
17
08
19
0:
0;
0<
0=
0>
0?
0@
0A
0B
0C
0D
0E
0F
1G
0H
1I
0J
0^
0_
0`
0a
0b
0c
0d
0e
0f
0g
0h
0i
1j
0k
1l
0m
0n
0o
0p
0q
0r
0s
0t
0u
0v
0w
0x
0y
1z
0{
1|
0}
$end
#15000
1!
1T
1A!
1'#
1&#
0-#
1K!
1t!
0B!
1J!
0K!
0t!
0F!
1u!
0L!
0s!
1!!
0"!
0M!
1v!
0u!
1L!
1s!
1m
0l
1J
1M!
0v!
1N!
0I
0N!
#30000
0!
0T
0A!
#45000
1!
1T
1A!
0'#
1B!
0J!
1K!
1t!
1F!
0!!
1u!
0L!
0s!
0m
0J
0M!
1v!
1N!
#60000
0!
0T
0A!
#75000
1!
1T
1A!
1'#
1$#
0&#
1%#
0+#
1-#
0u!
1L!
0K!
0t!
1M!
1O!
0B!
1J!
1K!
0F!
1P!
0R!
0N!
1u!
1s!
0M!
0O!
0v!
1#!
1!!
1"!
0$!
0P!
1R!
1N!
1v!
1S!
1U!
1Q!
0s!
1k
1m
1l
0j
1J
1H
1V!
0X!
1T!
0S!
0U!
0Q!
1I
0G
0V!
1X!
0T!
1Y!
1[!
1W!
1\!
0^!
1Z!
0Y!
0[!
0W!
0\!
1^!
0Z!
1_!
1a!
1]!
1b!
0d!
1`!
0_!
0a!
0]!
0b!
1d!
0`!
1e!
1g!
1c!
1h!
0j!
1f!
0e!
0g!
0c!
0h!
1j!
0f!
1k!
1m!
1i!
1#"
0n!
1l!
0k!
0m!
0i!
0#"
1n!
0l!
1o!
1$"
1p!
0o!
0$"
0p!
#80000
0$
0V
0}!
0!"
0""
0D!
1E!
1F!
#90000
0!
0T
0A!
#105000
1!
1T
1A!
#120000
0!
0T
0A!
#135000
1!
1T
1A!
#150000
0!
1$
0T
1V
1}!
0A!
1!"
1""
1D!
0E!
0F!
#165000
1!
1T
1A!
0'#
1B!
0J!
0K!
1F!
0!!
1s!
0m
0J
#180000
0!
0T
0A!
#195000
1!
1T
1A!
1'#
1&#
0-#
1K!
1t!
0B!
1J!
0K!
0t!
0F!
0u!
0s!
1!!
0"!
0v!
1u!
1s!
1m
0l
1J
1v!
0I
#210000
0!
0T
0A!
#225000
1!
1T
1A!
0'#
1B!
0J!
1K!
1t!
1F!
0!!
0u!
0s!
0m
0J
0v!
#240000
0!
0T
0A!
#255000
1!
1T
1A!
1'#
0&#
0%#
1-#
1u!
0L!
0K!
0t!
0B!
1J!
1K!
0F!
0u!
1L!
1s!
1M!
1O!
1v!
0#!
1!!
1"!
1P!
0R!
0N!
0M!
0O!
0v!
0s!
0k
1m
1l
1J
0H
0P!
1R!
1N!
1S!
1U!
1Q!
1I
1V!
0X!
1T!
0S!
0U!
0Q!
0V!
1X!
0T!
1Y!
1[!
1W!
1\!
0^!
1Z!
0Y!
0[!
0W!
0\!
1^!
0Z!
1_!
1a!
1]!
1b!
0d!
1`!
0_!
0a!
0]!
0b!
1d!
0`!
1e!
1g!
1c!
1h!
0j!
1f!
0e!
0g!
0c!
0h!
1j!
0f!
1k!
1m!
1i!
1#"
0n!
1l!
0k!
0m!
0i!
0#"
1n!
0l!
1o!
1$"
1p!
0o!
0$"
0p!
#270000
0!
0T
0A!
#285000
1!
1T
1A!
0'#
1B!
0J!
0K!
1F!
0!!
1s!
0m
0J
#300000
0!
0T
0A!
#315000
1!
1T
1A!
1'#
1&#
0-#
1K!
1t!
0B!
1J!
0K!
0t!
0F!
1u!
0L!
0s!
1!!
0"!
1M!
1O!
1v!
0u!
1L!
1s!
1m
0l
1J
0M!
0O!
0v!
1P!
0R!
0N!
0I
1S!
1U!
1Q!
0P!
1R!
1N!
0S!
0U!
0Q!
1V!
0X!
1T!
1Y!
1[!
1W!
0V!
1X!
0T!
0Y!
0[!
0W!
1\!
0^!
1Z!
1_!
1a!
1]!
0\!
1^!
0Z!
0_!
0a!
0]!
1b!
0d!
1`!
1e!
1g!
1c!
0b!
1d!
0`!
0e!
0g!
0c!
1h!
0j!
1f!
1k!
1m!
1i!
0h!
1j!
0f!
0k!
0m!
0i!
1#"
0n!
1l!
1o!
1$"
0#"
1n!
0l!
0o!
0$"
1p!
0p!
#330000
0!
0T
0A!
#345000
1!
1T
1A!
0'#
1B!
0J!
0w!
0z!
1K!
1t!
1F!
0!!
1u!
0L!
0s!
0r!
0""
1%"
0m
0J
0D!
0N!
1M!
1O!
1v!
1P!
0R!
0F!
0v!
1S!
1U!
1V!
0X!
1Y!
1[!
1\!
0^!
1_!
1a!
1b!
0d!
1e!
1g!
1h!
0j!
1k!
1m!
1#"
0n!
1o!
#360000
0!
0T
0A!
#375000
1!
1T
1A!
0$#
0&#
1&"
1+#
1-#
0K!
0t!
0M!
0O!
1w!
1z!
0P!
1R!
0u!
1L!
1~
1"!
1$!
1M!
0S!
0U!
1r!
1""
0%"
1]
1l
1j
1%
1D!
1$"
1p!
1s!
0V!
1X!
1I
1G
0Y!
0[!
1F!
1Z!
1]!
1`!
1c!
1f!
1i!
1l!
0\!
1^!
0Z!
0_!
0a!
0]!
0b!
1d!
0`!
0e!
0g!
0c!
0h!
1j!
0f!
0k!
0m!
0i!
0#"
1n!
0l!
0o!
0$"
0p!
#390000
0!
0T
0A!
#405000
1!
1T
1A!
1'#
1&#
0&"
0-#
1K!
1t!
0B!
1J!
0K!
0t!
0F!
1u!
0L!
0s!
0~
1!!
0"!
0M!
1v!
0u!
1L!
1s!
0]
1m
0l
0%
1J
1M!
0v!
1N!
0I
0N!
#420000
0!
0T
0A!
#435000
1!
1T
1A!
0'#
1B!
0J!
1K!
1t!
1F!
0!!
1u!
0L!
0s!
0m
0J
0M!
1v!
1N!
#450000
0!
0T
0A!
#465000
1!
1T
1A!
1'#
1$#
0&#
1%#
0+#
1-#
0u!
1L!
0K!
0t!
1M!
1O!
0B!
1J!
1K!
0F!
1P!
0R!
0N!
1u!
1s!
0M!
0O!
0v!
1#!
1!!
1"!
0$!
0P!
1R!
1N!
1v!
1S!
1U!
1Q!
0s!
1k
1m
1l
0j
1J
1H
1V!
0X!
1T!
0S!
0U!
0Q!
1I
0G
0V!
1X!
0T!
1Y!
1[!
1W!
1\!
0^!
1Z!
0Y!
0[!
0W!
0\!
1^!
0Z!
1_!
1a!
1]!
1b!
0d!
1`!
0_!
0a!
0]!
0b!
1d!
0`!
1e!
1g!
1c!
1h!
0j!
1f!
0e!
0g!
0c!
0h!
1j!
0f!
1k!
1m!
1i!
1#"
0n!
1l!
0k!
0m!
0i!
0#"
1n!
0l!
1o!
1$"
1p!
0o!
0$"
0p!
#480000
0!
0T
0A!
#495000
1!
1T
1A!
0'#
1B!
0J!
0K!
1F!
0!!
1s!
0m
0J
#510000
0!
0T
0A!
#525000
1!
1T
1A!
1'#
1&#
0-#
1K!
1t!
0B!
1J!
0K!
0t!
0F!
0u!
0s!
1!!
0"!
0v!
1u!
1s!
1m
0l
1J
1v!
0I
#540000
0!
0T
0A!
#555000
1!
1T
1A!
0'#
1B!
0J!
1K!
1t!
1F!
0!!
0u!
0s!
0m
0J
0v!
#570000
0!
0T
0A!
#585000
1!
1T
1A!
1'#
0&#
0%#
1-#
1u!
0L!
0K!
0t!
0B!
1J!
1K!
0F!
0u!
1L!
1s!
1M!
1O!
1v!
0#!
1!!
1"!
1P!
0R!
0N!
0M!
0O!
0v!
0s!
0k
1m
1l
1J
0H
0P!
1R!
1N!
1S!
1U!
1Q!
1I
1V!
0X!
1T!
0S!
0U!
0Q!
0V!
1X!
0T!
1Y!
1[!
1W!
1\!
0^!
1Z!
0Y!
0[!
0W!
0\!
1^!
0Z!
1_!
1a!
1]!
1b!
0d!
1`!
0_!
0a!
0]!
0b!
1d!
0`!
1e!
1g!
1c!
1h!
0j!
1f!
0e!
0g!
0c!
0h!
1j!
0f!
1k!
1m!
1i!
1#"
0n!
1l!
0k!
0m!
0i!
0#"
1n!
0l!
1o!
1$"
1p!
0o!
0$"
0p!
#600000
0!
0T
0A!
#615000
1!
1T
1A!
0'#
1B!
0J!
0K!
1F!
0!!
1s!
0m
0J
#630000
0!
0T
0A!
#645000
1!
1T
1A!
1'#
1&#
0-#
1K!
1t!
0B!
1J!
0K!
0t!
0F!
1u!
0L!
0s!
1!!
0"!
1M!
1O!
1v!
0u!
1L!
1s!
1m
0l
1J
0M!
0O!
0v!
1P!
0R!
0N!
0I
1S!
1U!
1Q!
0P!
1R!
1N!
0S!
0U!
0Q!
1V!
0X!
1T!
1Y!
1[!
1W!
0V!
1X!
0T!
0Y!
0[!
0W!
1\!
0^!
1Z!
1_!
1a!
1]!
0\!
1^!
0Z!
0_!
0a!
0]!
1b!
0d!
1`!
1e!
1g!
1c!
0b!
1d!
0`!
0e!
0g!
0c!
1h!
0j!
1f!
1k!
1m!
1i!
0h!
1j!
0f!
0k!
0m!
0i!
1#"
0n!
1l!
1o!
1$"
0#"
1n!
0l!
0o!
0$"
1p!
0p!
#660000
0!
0T
0A!
#675000
1!
1T
1A!
0'#
1B!
0J!
0w!
0z!
1K!
1t!
1F!
0!!
1u!
0L!
0s!
0r!
0""
1%"
0m
0J
0D!
0N!
1M!
1O!
1v!
1P!
0R!
0F!
0v!
1S!
1U!
1V!
0X!
1Y!
1[!
1\!
0^!
1_!
1a!
1b!
0d!
1e!
1g!
1h!
0j!
1k!
1m!
1#"
0n!
1o!
#690000
0!
1(
0T
1U
1C!
0A!
0G"
0/"
#705000
1!
1T
1A!
0$#
0&#
1&"
1+#
1-#
0K!
0t!
0M!
0O!
1w!
1z!
0P!
1R!
0u!
1L!
1~
1"!
1$!
1M!
0S!
0U!
1""
0%"
1]
1l
1j
1%
0V!
1X!
1I
1G
0Y!
0[!
0\!
1^!
0_!
0a!
0b!
1d!
0e!
0g!
0h!
1j!
0k!
0m!
0#"
1n!
0o!
#720000
0!
0T
0A!
#730000
0(
0U
0C!
1D!
1r!
1G"
1/"
1H"
1s!
1F!
0H"
#735000
1!
1T
1A!
1'#
1&#
0&"
0-#
1K!
1t!
0B!
1J!
0K!
0t!
0F!
1u!
0L!
0s!
0~
1!!
0"!
0M!
1v!
0u!
1L!
1s!
0]
1m
0l
0%
1J
1M!
0v!
1N!
0I
0N!
#750000
0!
0T
0A!
#765000
1!
1T
1A!
0'#
1B!
0J!
1K!
1t!
1F!
0!!
1u!
0L!
0s!
0m
0J
0M!
1v!
1N!
#780000
0!
0T
0A!
#795000
1!
1T
1A!
1'#
1$#
0&#
1%#
0+#
1-#
0u!
1L!
0K!
0t!
1M!
1O!
0B!
1J!
1K!
0F!
1P!
0R!
0N!
1u!
1s!
0M!
0O!
0v!
1#!
1!!
1"!
0$!
0P!
1R!
1N!
1v!
1S!
1U!
1Q!
0s!
1k
1m
1l
0j
1J
1H
1V!
0X!
1T!
0S!
0U!
0Q!
1I
0G
0V!
1X!
0T!
1Y!
1[!
1W!
1\!
0^!
1Z!
0Y!
0[!
0W!
0\!
1^!
0Z!
1_!
1a!
1]!
1b!
0d!
1`!
0_!
0a!
0]!
0b!
1d!
0`!
1e!
1g!
1c!
1h!
0j!
1f!
0e!
0g!
0c!
0h!
1j!
0f!
1k!
1m!
1i!
1#"
0n!
1l!
0k!
0m!
0i!
0#"
1n!
0l!
1o!
1$"
1p!
0o!
0$"
0p!
#810000
0!
0T
0A!
#825000
1!
1T
1A!
0'#
1B!
0J!
0K!
1F!
0!!
1s!
0m
0J
#840000
0!
0T
0A!
#855000
1!
1T
1A!
1'#
1&#
0-#
1K!
1t!
0B!
1J!
0K!
0t!
0F!
0u!
0s!
1!!
0"!
0v!
1u!
1s!
1m
0l
1J
1v!
0I
#870000
0!
0T
0A!
#885000
1!
1T
1A!
0'#
1B!
0J!
1K!
1t!
1F!
0!!
0u!
0s!
0m
0J
0v!
#900000
0!
0T
0A!
#915000
1!
1T
1A!
1'#
0&#
0%#
1-#
1u!
0L!
0K!
0t!
0B!
1J!
1K!
0F!
0u!
1L!
1s!
1M!
1O!
1v!
0#!
1!!
1"!
1P!
0R!
0N!
0M!
0O!
0v!
0s!
0k
1m
1l
1J
0H
0P!
1R!
1N!
1S!
1U!
1Q!
1I
1V!
0X!
1T!
0S!
0U!
0Q!
0V!
1X!
0T!
1Y!
1[!
1W!
1\!
0^!
1Z!
0Y!
0[!
0W!
0\!
1^!
0Z!
1_!
1a!
1]!
1b!
0d!
1`!
0_!
0a!
0]!
0b!
1d!
0`!
1e!
1g!
1c!
1h!
0j!
1f!
0e!
0g!
0c!
0h!
1j!
0f!
1k!
1m!
1i!
1#"
0n!
1l!
0k!
0m!
0i!
0#"
1n!
0l!
1o!
1$"
1p!
0o!
0$"
0p!
#930000
0!
0T
0A!
#945000
1!
1T
1A!
0'#
1B!
0J!
0K!
1F!
0!!
1s!
0m
0J
#960000
0!
0T
0A!
#975000
1!
1T
1A!
1'#
1&#
0-#
1K!
1t!
0B!
1J!
0K!
0t!
0F!
1u!
0L!
0s!
1!!
0"!
1M!
1O!
1v!
0u!
1L!
1s!
1m
0l
1J
0M!
0O!
0v!
1P!
0R!
0N!
0I
1S!
1U!
1Q!
0P!
1R!
1N!
0S!
0U!
0Q!
1V!
0X!
1T!
1Y!
1[!
1W!
0V!
1X!
0T!
0Y!
0[!
0W!
1\!
0^!
1Z!
1_!
1a!
1]!
0\!
1^!
0Z!
0_!
0a!
0]!
1b!
0d!
1`!
1e!
1g!
1c!
0b!
1d!
0`!
0e!
0g!
0c!
1h!
0j!
1f!
1k!
1m!
1i!
0h!
1j!
0f!
0k!
0m!
0i!
1#"
0n!
1l!
1o!
1$"
0#"
1n!
0l!
0o!
0$"
1p!
0p!
#990000
0!
0T
0A!
