simulation/qsim/Forno.msim.vcd
$comment
	File created using the following command:
		vcd file Forno.msim.vcd -direction
$end
$date
	Sun May 26 18:12:26 2024
$end
$version
	Questa Intel Starter FPGA Edition Version 2021.2
$end
$timescale
	1ps
$end

$scope module endtimeregister_vhd_vec_tst $end
$var wire 1 ! actualTime [15] $end
$var wire 1 " actualTime [14] $end
$var wire 1 # actualTime [13] $end
$var wire 1 $ actualTime [12] $end
$var wire 1 % actualTime [11] $end
$var wire 1 & actualTime [10] $end
$var wire 1 ' actualTime [9] $end
$var wire 1 ( actualTime [8] $end
$var wire 1 ) actualTime [7] $end
$var wire 1 * actualTime [6] $end
$var wire 1 + actualTime [5] $end
$var wire 1 , actualTime [4] $end
$var wire 1 - actualTime [3] $end
$var wire 1 . actualTime [2] $end
$var wire 1 / actualTime [1] $end
$var wire 1 0 actualTime [0] $end
$var wire 1 1 clk $end
$var wire 1 2 decrement $end
$var wire 1 3 enable $end
$var wire 1 4 endTimeOut [15] $end
$var wire 1 5 endTimeOut [14] $end
$var wire 1 6 endTimeOut [13] $end
$var wire 1 7 endTimeOut [12] $end
$var wire 1 8 endTimeOut [11] $end
$var wire 1 9 endTimeOut [10] $end
$var wire 1 : endTimeOut [9] $end
$var wire 1 ; endTimeOut [8] $end
$var wire 1 < endTimeOut [7] $end
$var wire 1 = endTimeOut [6] $end
$var wire 1 > endTimeOut [5] $end
$var wire 1 ? endTimeOut [4] $end
$var wire 1 @ endTimeOut [3] $end
$var wire 1 A endTimeOut [2] $end
$var wire 1 B endTimeOut [1] $end
$var wire 1 C endTimeOut [0] $end
$var wire 1 D increment $end
$var wire 1 E reset $end

$scope module i1 $end
$var wire 1 F gnd $end
$var wire 1 G vcc $end
$var wire 1 H unknown $end
$var wire 1 I devoe $end
$var wire 1 J devclrn $end
$var wire 1 K devpor $end
$var wire 1 L ww_devoe $end
$var wire 1 M ww_devclrn $end
$var wire 1 N ww_devpor $end
$var wire 1 O ww_clk $end
$var wire 1 P ww_reset $end
$var wire 1 Q ww_enable $end
$var wire 1 R ww_increment $end
$var wire 1 S ww_decrement $end
$var wire 1 T ww_actualTime [15] $end
$var wire 1 U ww_actualTime [14] $end
$var wire 1 V ww_actualTime [13] $end
$var wire 1 W ww_actualTime [12] $end
$var wire 1 X ww_actualTime [11] $end
$var wire 1 Y ww_actualTime [10] $end
$var wire 1 Z ww_actualTime [9] $end
$var wire 1 [ ww_actualTime [8] $end
$var wire 1 \ ww_actualTime [7] $end
$var wire 1 ] ww_actualTime [6] $end
$var wire 1 ^ ww_actualTime [5] $end
$var wire 1 _ ww_actualTime [4] $end
$var wire 1 ` ww_actualTime [3] $end
$var wire 1 a ww_actualTime [2] $end
$var wire 1 b ww_actualTime [1] $end
$var wire 1 c ww_actualTime [0] $end
$var wire 1 d ww_endTimeOut [15] $end
$var wire 1 e ww_endTimeOut [14] $end
$var wire 1 f ww_endTimeOut [13] $end
$var wire 1 g ww_endTimeOut [12] $end
$var wire 1 h ww_endTimeOut [11] $end
$var wire 1 i ww_endTimeOut [10] $end
$var wire 1 j ww_endTimeOut [9] $end
$var wire 1 k ww_endTimeOut [8] $end
$var wire 1 l ww_endTimeOut [7] $end
$var wire 1 m ww_endTimeOut [6] $end
$var wire 1 n ww_endTimeOut [5] $end
$var wire 1 o ww_endTimeOut [4] $end
$var wire 1 p ww_endTimeOut [3] $end
$var wire 1 q ww_endTimeOut [2] $end
$var wire 1 r ww_endTimeOut [1] $end
$var wire 1 s ww_endTimeOut [0] $end
$var wire 1 t \endTimeOut[0]~output_o\ $end
$var wire 1 u \endTimeOut[1]~output_o\ $end
$var wire 1 v \endTimeOut[2]~output_o\ $end
$var wire 1 w \endTimeOut[3]~output_o\ $end
$var wire 1 x \endTimeOut[4]~output_o\ $end
$var wire 1 y \endTimeOut[5]~output_o\ $end
$var wire 1 z \endTimeOut[6]~output_o\ $end
$var wire 1 { \endTimeOut[7]~output_o\ $end
$var wire 1 | \endTimeOut[8]~output_o\ $end
$var wire 1 } \endTimeOut[9]~output_o\ $end
$var wire 1 ~ \endTimeOut[10]~output_o\ $end
$var wire 1 !! \endTimeOut[11]~output_o\ $end
$var wire 1 "! \endTimeOut[12]~output_o\ $end
$var wire 1 #! \endTimeOut[13]~output_o\ $end
$var wire 1 $! \endTimeOut[14]~output_o\ $end
$var wire 1 %! \endTimeOut[15]~output_o\ $end
$var wire 1 &! \clk~input_o\ $end
$var wire 1 '! \actualTime[0]~input_o\ $end
$var wire 1 (! \Add0~0_combout\ $end
$var wire 1 )! \reset~input_o\ $end
$var wire 1 *! \actualTime[15]~input_o\ $end
$var wire 1 +! \increment~input_o\ $end
$var wire 1 ,! \actualTime[14]~input_o\ $end
$var wire 1 -! \actualTime[13]~input_o\ $end
$var wire 1 .! \actualTime[12]~input_o\ $end
$var wire 1 /! \actualTime[11]~input_o\ $end
$var wire 1 0! \actualTime[10]~input_o\ $end
$var wire 1 1! \actualTime[9]~input_o\ $end
$var wire 1 2! \actualTime[8]~input_o\ $end
$var wire 1 3! \actualTime[7]~input_o\ $end
$var wire 1 4! \actualTime[6]~input_o\ $end
$var wire 1 5! \actualTime[5]~input_o\ $end
$var wire 1 6! \actualTime[4]~input_o\ $end
$var wire 1 7! \actualTime[3]~input_o\ $end
$var wire 1 8! \actualTime[2]~input_o\ $end
$var wire 1 9! \actualTime[1]~input_o\ $end
$var wire 1 :! \Add0~1\ $end
$var wire 1 ;! \Add0~32_combout\ $end
$var wire 1 <! \Add0~3_cout\ $end
$var wire 1 =! \Add0~5_cout\ $end
$var wire 1 >! \Add0~7_cout\ $end
$var wire 1 ?! \Add0~9_cout\ $end
$var wire 1 @! \Add0~11\ $end
$var wire 1 A! \Add0~13\ $end
$var wire 1 B! \Add0~15\ $end
$var wire 1 C! \Add0~17\ $end
$var wire 1 D! \Add0~19\ $end
$var wire 1 E! \Add0~21\ $end
$var wire 1 F! \Add0~23\ $end
$var wire 1 G! \Add0~25\ $end
$var wire 1 H! \Add0~27\ $end
$var wire 1 I! \Add0~28_combout\ $end
$var wire 1 J! \Add0~20_combout\ $end
$var wire 1 K! \Add0~18_combout\ $end
$var wire 1 L! \Add0~14_combout\ $end
$var wire 1 M! \Add0~16_combout\ $end
$var wire 1 N! \Add0~10_combout\ $end
$var wire 1 O! \Add0~12_combout\ $end
$var wire 1 P! \s_endTime~1_combout\ $end
$var wire 1 Q! \Add0~22_combout\ $end
$var wire 1 R! \Add0~24_combout\ $end
$var wire 1 S! \Add0~26_combout\ $end
$var wire 1 T! \Add0~29\ $end
$var wire 1 U! \Add0~30_combout\ $end
$var wire 1 V! \s_endTime~2_combout\ $end
$var wire 1 W! \s_endTime~3_combout\ $end
$var wire 1 X! \s_endTime~4_combout\ $end
$var wire 1 Y! \s_endTime~8_combout\ $end
$var wire 1 Z! \decrement~input_o\ $end
$var wire 1 [! \s_endTime[0]~6_combout\ $end
$var wire 1 \! \enable~input_o\ $end
$var wire 1 ]! \s_endTime[0]~7_combout\ $end
$var wire 1 ^! \Add0~33\ $end
$var wire 1 _! \Add0~34_combout\ $end
$var wire 1 `! \s_endTime~9_combout\ $end
$var wire 1 a! \Add0~35\ $end
$var wire 1 b! \Add0~36_combout\ $end
$var wire 1 c! \s_endTime~10_combout\ $end
$var wire 1 d! \Add0~37\ $end
$var wire 1 e! \Add0~38_combout\ $end
$var wire 1 f! \s_endTime~11_combout\ $end
$var wire 1 g! \Add0~39\ $end
$var wire 1 h! \Add0~40_combout\ $end
$var wire 1 i! \s_endTime~12_combout\ $end
$var wire 1 j! \Add0~41\ $end
$var wire 1 k! \Add0~42_combout\ $end
$var wire 1 l! \s_endTime~13_combout\ $end
$var wire 1 m! \Add0~43\ $end
$var wire 1 n! \Add0~44_combout\ $end
$var wire 1 o! \s_endTime~14_combout\ $end
$var wire 1 p! \Add0~45\ $end
$var wire 1 q! \Add0~46_combout\ $end
$var wire 1 r! \s_endTime~15_combout\ $end
$var wire 1 s! \Add0~47\ $end
$var wire 1 t! \Add0~48_combout\ $end
$var wire 1 u! \s_endTime~16_combout\ $end
$var wire 1 v! \Add0~49\ $end
$var wire 1 w! \Add0~50_combout\ $end
$var wire 1 x! \s_endTime~17_combout\ $end
$var wire 1 y! \Add0~51\ $end
$var wire 1 z! \Add0~52_combout\ $end
$var wire 1 {! \s_endTime~18_combout\ $end
$var wire 1 |! \Add0~53\ $end
$var wire 1 }! \Add0~54_combout\ $end
$var wire 1 ~! \s_endTime~19_combout\ $end
$var wire 1 !" \Add0~55\ $end
$var wire 1 "" \Add0~56_combout\ $end
$var wire 1 #" \s_endTime~20_combout\ $end
$var wire 1 $" \Add0~57\ $end
$var wire 1 %" \Add0~58_combout\ $end
$var wire 1 &" \s_endTime~21_combout\ $end
$var wire 1 '" \Add0~59\ $end
$var wire 1 (" \Add0~60_combout\ $end
$var wire 1 )" \s_endTime~22_combout\ $end
$var wire 1 *" \LessThan0~1_cout\ $end
$var wire 1 +" \LessThan0~3_cout\ $end
$var wire 1 ," \LessThan0~5_cout\ $end
$var wire 1 -" \LessThan0~7_cout\ $end
$var wire 1 ." \LessThan0~9_cout\ $end
$var wire 1 /" \LessThan0~11_cout\ $end
$var wire 1 0" \LessThan0~13_cout\ $end
$var wire 1 1" \LessThan0~15_cout\ $end
$var wire 1 2" \LessThan0~17_cout\ $end
$var wire 1 3" \LessThan0~19_cout\ $end
$var wire 1 4" \LessThan0~21_cout\ $end
$var wire 1 5" \LessThan0~23_cout\ $end
$var wire 1 6" \LessThan0~25_cout\ $end
$var wire 1 7" \LessThan0~27_cout\ $end
$var wire 1 8" \LessThan0~29_cout\ $end
$var wire 1 9" \LessThan0~30_combout\ $end
$var wire 1 :" \s_endTime[0]~0_combout\ $end
$var wire 1 ;" \s_endTime~5_combout\ $end
$var wire 1 <" s_endTime [15] $end
$var wire 1 =" s_endTime [14] $end
$var wire 1 >" s_endTime [13] $end
$var wire 1 ?" s_endTime [12] $end
$var wire 1 @" s_endTime [11] $end
$var wire 1 A" s_endTime [10] $end
$var wire 1 B" s_endTime [9] $end
$var wire 1 C" s_endTime [8] $end
$var wire 1 D" s_endTime [7] $end
$var wire 1 E" s_endTime [6] $end
$var wire 1 F" s_endTime [5] $end
$var wire 1 G" s_endTime [4] $end
$var wire 1 H" s_endTime [3] $end
$var wire 1 I" s_endTime [2] $end
$var wire 1 J" s_endTime [1] $end
$var wire 1 K" s_endTime [0] $end
$upscope $end
$upscope $end
$enddefinitions $end
#0
$dumpvars
01
12
13
0D
0E
0F
1G
xH
1I
1J
1K
1L
1M
1N
0O
0P
1Q
0R
1S
0t
0u
0v
0w
0x
0y
0z
0{
0|
0}
0~
0!!
0"!
0#!
0$!
0%!
0&!
0'!
1(!
0)!
0*!
0+!
0,!
0-!
0.!
0/!
00!
01!
02!
03!
04!
15!
16!
07!
08!
19!
0:!
1;!
0<!
1=!
0>!
1?!
0@!
1A!
0B!
1C!
0D!
1E!
0F!
1G!
0H!
0I!
0J!
0K!
0L!
0M!
0N!
0O!
0P!
0Q!
0R!
0S!
1T!
0U!
0V!
0W!
1X!
1Y!
1Z!
0[!
1\!
1]!
1^!
0_!
0`!
0a!
1b!
0c!
1d!
1e!
1f!
0g!
1h!
1i!
1j!
1k!
0l!
0m!
1n!
0o!
1p!
1q!
0r!
0s!
1t!
0u!
1v!
1w!
0x!
0y!
1z!
0{!
1|!
1}!
0~!
0!"
1""
0#"
1$"
1%"
0&"
0'"
1("
0)"
0*"
0+"
1,"
0-"
1."
0/"
10"
01"
12"
03"
14"
05"
16"
07"
18"
19"
0:"
0;"
0!
0"
0#
0$
0%
0&
0'
0(
0)
0*
1+
1,
0-
0.
1/
00
04
05
06
07
08
09
0:
0;
0<
0=
0>
0?
0@
0A
0B
0C
0T
0U
0V
0W
0X
0Y
0Z
0[
0\
0]
1^
1_
0`
0a
1b
0c
0<"
0="
0>"
0?"
0@"
0A"
0B"
0C"
0D"
0E"
0F"
0G"
0H"
0I"
0J"
0K"
0d
0e
0f
0g
0h
0i
0j
0k
0l
0m
0n
0o
0p
0q
0r
0s
$end
#15000
11
1O
1&!
1J"
1G"
1F"
1N!
0h!
0j!
0e!
1g!
0;!
0^!
1+"
0,"
1_!
1h!
0k!
1m!
1y
1x
1u
0n!
0p!
1-"
1n
1o
1r
1B
1?
1>
0."
0q!
1s!
0t!
0v!
1/"
00"
0w!
1y!
0z!
0|!
11"
02"
0}!
1!"
0""
0$"
13"
04"
0%"
1'"
0("
15"
06"
17"
08"
09"
1:"
0X!
0Y!
0f!
0i!
1`!
1c!
1i!
1;"
#30000
01
0O
0&!
#45000
11
1O
1&!
0J"
1I"
1H"
0G"
1K"
0(!
1:!
1e!
0g!
1."
0b!
0d!
0=!
0_!
1a!
1;!
1^!
0+"
1_!
0a!
1Y!
1b!
0`!
1>!
0e!
1g!
0c!
0/"
0h!
1f!
0;!
0^!
0;"
1t
0x
1w
1v
0u
0_!
1a!
0Y!
0i!
10"
1h!
0f!
1c!
0b!
1`!
1s
0o
1p
1q
0r
1C
0B
1A
1@
0?
0c!
1i!
01"
1b!
0`!
1c!
12"
03"
14"
05"
16"
07"
18"
19"
0:"
1X!
1Y!
1f!
0c!
#60000
01
0O
0&!
#75000
11
1O
1&!
1J"
0I"
0H"
1G"
0K"
1(!
0:!
0?!
1e!
0."
0>!
0b!
1=!
1_!
0a!
1,"
1;!
1+"
0,"
0-"
1b!
1d!
1?!
1/"
0N!
1@!
0;!
0t
1x
0w
0v
1u
1O!
00"
1N!
0@!
0e!
1."
1-"
0s
1o
0p
0q
1r
0C
1B
0A
0@
1?
0."
0/"
0O!
11"
02"
10"
1/"
00"
01"
13"
04"
12"
11"
02"
03"
15"
06"
14"
13"
04"
05"
17"
08"
16"
15"
06"
07"
09"
1:"
18"
17"
08"
19"
0X!
0Y!
0f!
0i!
1`!
1c!
1i!
1;"
0:"
09"
1:"
1X!
1Y!
1f!
0X!
0Y!
0`!
0c!
0f!
0i!
0;"
1`!
1c!
1i!
1;"
#90000
01
0O
0&!
#105000
11
1O
1&!
0J"
1I"
1H"
0G"
1K"
0(!
1:!
1e!
0g!
1."
0b!
0d!
0=!
0_!
1a!
1;!
1^!
0+"
1_!
0a!
1Y!
1b!
0`!
1>!
0e!
1g!
0c!
0/"
0h!
1f!
0;!
0^!
0;"
1t
0x
1w
1v
0u
0_!
1a!
0Y!
0i!
10"
1h!
0f!
1c!
0b!
1`!
1s
0o
1p
1q
0r
1C
0B
1A
1@
0?
0c!
1i!
01"
1b!
0`!
1c!
12"
03"
14"
05"
16"
07"
18"
19"
0:"
1X!
1Y!
1f!
0c!
#120000
01
0O
0&!
#135000
11
1O
1&!
1J"
0I"
0H"
1G"
0K"
1(!
0:!
0?!
1e!
0."
0>!
0b!
1=!
1_!
0a!
1,"
1;!
1+"
0,"
0-"
1b!
1d!
1?!
1/"
0N!
1@!
0;!
0t
1x
0w
0v
1u
1O!
00"
1N!
0@!
0e!
1."
1-"
0s
1o
0p
0q
1r
0C
1B
0A
0@
1?
0."
0/"
0O!
11"
02"
10"
1/"
00"
01"
13"
04"
12"
11"
02"
03"
15"
06"
14"
13"
04"
05"
17"
08"
16"
15"
06"
07"
09"
1:"
18"
17"
08"
19"
0X!
0Y!
0f!
0i!
1`!
1c!
1i!
1;"
0:"
09"
1:"
1X!
1Y!
1f!
0X!
0Y!
0`!
0c!
0f!
0i!
0;"
1`!
1c!
1i!
1;"
#150000
01
0O
0&!
#165000
11
1O
1&!
0J"
1I"
1H"
0G"
1K"
0(!
1:!
1e!
0g!
1."
0b!
0d!
0=!
0_!
1a!
1;!
1^!
0+"
1_!
0a!
1Y!
1b!
0`!
1>!
0e!
1g!
0c!
0/"
0h!
1f!
0;!
0^!
0;"
1t
0x
1w
1v
0u
0_!
1a!
0Y!
0i!
10"
1h!
0f!
1c!
0b!
1`!
1s
0o
1p
1q
0r
1C
0B
1A
1@
0?
0c!
1i!
01"
1b!
0`!
1c!
12"
03"
14"
05"
16"
07"
18"
19"
0:"
1X!
1Y!
1f!
0c!
#180000
01
0O
0&!
#195000
11
1O
1&!
1J"
0I"
0H"
1G"
0K"
1(!
0:!
0?!
1e!
0."
0>!
0b!
1=!
1_!
0a!
1,"
1;!
1+"
0,"
0-"
1b!
1d!
1?!
1/"
0N!
1@!
0;!
0t
1x
0w
0v
1u
1O!
00"
1N!
0@!
0e!
1."
1-"
0s
1o
0p
0q
1r
0C
1B
0A
0@
1?
0."
0/"
0O!
11"
02"
10"
1/"
00"
01"
13"
04"
12"
11"
02"
03"
15"
06"
14"
13"
04"
05"
17"
08"
16"
15"
06"
07"
09"
1:"
18"
17"
08"
19"
0X!
0Y!
0f!
0i!
1`!
1c!
1i!
1;"
0:"
09"
1:"
1X!
1Y!
1f!
0X!
0Y!
0`!
0c!
0f!
0i!
0;"
1`!
1c!
1i!
1;"
#210000
01
0O
0&!
#225000
11
1O
1&!
0J"
1I"
1H"
0G"
1K"
0(!
1:!
1e!
0g!
1."
0b!
0d!
0=!
0_!
1a!
1;!
1^!
0+"
1_!
0a!
1Y!
1b!
0`!
1>!
0e!
1g!
0c!
0/"
0h!
1f!
0;!
0^!
0;"
1t
0x
1w
1v
0u
0_!
1a!
0Y!
0i!
10"
1h!
0f!
1c!
0b!
1`!
1s
0o
1p
1q
0r
1C
0B
1A
1@
0?
0c!
1i!
01"
1b!
0`!
1c!
12"
03"
14"
05"
16"
07"
18"
19"
0:"
1X!
1Y!
1f!
0c!
#240000
01
0O
0&!
#255000
11
1O
1&!
1J"
0I"
0H"
1G"
0K"
1(!
0:!
0?!
1e!
0."
0>!
0b!
1=!
1_!
0a!
1,"
1;!
1+"
0,"
0-"
1b!
1d!
1?!
1/"
0N!
1@!
0;!
0t
1x
0w
0v
1u
1O!
00"
1N!
0@!
0e!
1."
1-"
0s
1o
0p
0q
1r
0C
1B
0A
0@
1?
0."
0/"
0O!
11"
02"
10"
1/"
00"
01"
13"
04"
12"
11"
02"
03"
15"
06"
14"
13"
04"
05"
17"
08"
16"
15"
06"
07"
09"
1:"
18"
17"
08"
19"
0X!
0Y!
0f!
0i!
1`!
1c!
1i!
1;"
0:"
09"
1:"
1X!
1Y!
1f!
0X!
0Y!
0`!
0c!
0f!
0i!
0;"
1`!
1c!
1i!
1;"
#270000
01
0O
0&!
#285000
11
1O
1&!
0J"
1I"
1H"
0G"
1K"
0(!
1:!
1e!
0g!
1."
0b!
0d!
0=!
0_!
1a!
1;!
1^!
0+"
1_!
0a!
1Y!
1b!
0`!
1>!
0e!
1g!
0c!
0/"
0h!
1f!
0;!
0^!
0;"
1t
0x
1w
1v
0u
0_!
1a!
0Y!
0i!
10"
1h!
0f!
1c!
0b!
1`!
1s
0o
1p
1q
0r
1C
0B
1A
1@
0?
0c!
1i!
01"
1b!
0`!
1c!
12"
03"
14"
05"
16"
07"
18"
19"
0:"
1X!
1Y!
1f!
0c!
#300000
01
0O
0&!
#315000
11
1O
1&!
1J"
0I"
0H"
1G"
0K"
1(!
0:!
0?!
1e!
0."
0>!
0b!
1=!
1_!
0a!
1,"
1;!
1+"
0,"
0-"
1b!
1d!
1?!
1/"
0N!
1@!
0;!
0t
1x
0w
0v
1u
1O!
00"
1N!
0@!
0e!
1."
1-"
0s
1o
0p
0q
1r
0C
1B
0A
0@
1?
0."
0/"
0O!
11"
02"
10"
1/"
00"
01"
13"
04"
12"
11"
02"
03"
15"
06"
14"
13"
04"
05"
17"
08"
16"
15"
06"
07"
09"
1:"
18"
17"
08"
19"
0X!
0Y!
0f!
0i!
1`!
1c!
1i!
1;"
0:"
09"
1:"
1X!
1Y!
1f!
0X!
0Y!
0`!
0c!
0f!
0i!
0;"
1`!
1c!
1i!
1;"
#330000
01
0O
0&!
#345000
11
1O
1&!
0J"
1I"
1H"
0G"
1K"
0(!
1:!
1e!
0g!
1."
0b!
0d!
0=!
0_!
1a!
1;!
1^!
0+"
1_!
0a!
1Y!
1b!
0`!
1>!
0e!
1g!
0c!
0/"
0h!
1f!
0;!
0^!
0;"
1t
0x
1w
1v
0u
0_!
1a!
0Y!
0i!
10"
1h!
0f!
1c!
0b!
1`!
1s
0o
1p
1q
0r
1C
0B
1A
1@
0?
0c!
1i!
01"
1b!
0`!
1c!
12"
03"
14"
05"
16"
07"
18"
19"
0:"
1X!
1Y!
1f!
0c!
#360000
01
0O
0&!
#375000
11
1O
1&!
1J"
0I"
0H"
1G"
0K"
1(!
0:!
0?!
1e!
0."
0>!
0b!
1=!
1_!
0a!
1,"
1;!
1+"
0,"
0-"
1b!
1d!
1?!
1/"
0N!
1@!
0;!
0t
1x
0w
0v
1u
1O!
00"
1N!
0@!
0e!
1."
1-"
0s
1o
0p
0q
1r
0C
1B
0A
0@
1?
0."
0/"
0O!
11"
02"
10"
1/"
00"
01"
13"
04"
12"
11"
02"
03"
15"
06"
14"
13"
04"
05"
17"
08"
16"
15"
06"
07"
09"
1:"
18"
17"
08"
19"
0X!
0Y!
0f!
0i!
1`!
1c!
1i!
1;"
0:"
09"
1:"
1X!
1Y!
1f!
0X!
0Y!
0`!
0c!
0f!
0i!
0;"
1`!
1c!
1i!
1;"
#390000
01
0O
0&!
#405000
11
1O
1&!
0J"
1I"
1H"
0G"
1K"
0(!
1:!
1e!
0g!
1."
0b!
0d!
0=!
0_!
1a!
1;!
1^!
0+"
1_!
0a!
1Y!
1b!
0`!
1>!
0e!
1g!
0c!
0/"
0h!
1f!
0;!
0^!
0;"
1t
0x
1w
1v
0u
0_!
1a!
0Y!
0i!
10"
1h!
0f!
1c!
0b!
1`!
1s
0o
1p
1q
0r
1C
0B
1A
1@
0?
0c!
1i!
01"
1b!
0`!
1c!
12"
03"
14"
05"
16"
07"
18"
19"
0:"
1X!
1Y!
1f!
0c!
#420000
01
0O
0&!
#435000
11
1O
1&!
1J"
0I"
0H"
1G"
0K"
1(!
0:!
0?!
1e!
0."
0>!
0b!
1=!
1_!
0a!
1,"
1;!
1+"
0,"
0-"
1b!
1d!
1?!
1/"
0N!
1@!
0;!
0t
1x
0w
0v
1u
1O!
00"
1N!
0@!
0e!
1."
1-"
0s
1o
0p
0q
1r
0C
1B
0A
0@
1?
0."
0/"
0O!
11"
02"
10"
1/"
00"
01"
13"
04"
12"
11"
02"
03"
15"
06"
14"
13"
04"
05"
17"
08"
16"
15"
06"
07"
09"
1:"
18"
17"
08"
19"
0X!
0Y!
0f!
0i!
1`!
1c!
1i!
1;"
0:"
09"
1:"
1X!
1Y!
1f!
0X!
0Y!
0`!
0c!
0f!
0i!
0;"
1`!
1c!
1i!
1;"
#450000
01
0O
0&!
#465000
11
1O
1&!
0J"
1I"
1H"
0G"
1K"
0(!
1:!
1e!
0g!
1."
0b!
0d!
0=!
0_!
1a!
1;!
1^!
0+"
1_!
0a!
1Y!
1b!
0`!
1>!
0e!
1g!
0c!
0/"
0h!
1f!
0;!
0^!
0;"
1t
0x
1w
1v
0u
0_!
1a!
0Y!
0i!
10"
1h!
0f!
1c!
0b!
1`!
1s
0o
1p
1q
0r
1C
0B
1A
1@
0?
0c!
1i!
01"
1b!
0`!
1c!
12"
03"
14"
05"
16"
07"
18"
19"
0:"
1X!
1Y!
1f!
0c!
#480000
01
0O
0&!
#495000
11
1O
1&!
1J"
0I"
0H"
1G"
0K"
1(!
0:!
0?!
1e!
0."
0>!
0b!
1=!
1_!
0a!
1,"
1;!
1+"
0,"
0-"
1b!
1d!
1?!
1/"
0N!
1@!
0;!
0t
1x
0w
0v
1u
1O!
00"
1N!
0@!
0e!
1."
1-"
0s
1o
0p
0q
1r
0C
1B
0A
0@
1?
0."
0/"
0O!
11"
02"
10"
1/"
00"
01"
13"
04"
12"
11"
02"
03"
15"
06"
14"
13"
04"
05"
17"
08"
16"
15"
06"
07"
09"
1:"
18"
17"
08"
19"
0X!
0Y!
0f!
0i!
1`!
1c!
1i!
1;"
0:"
09"
1:"
1X!
1Y!
1f!
0X!
0Y!
0`!
0c!
0f!
0i!
0;"
1`!
1c!
1i!
1;"
#510000
01
0O
0&!
#525000
11
1O
1&!
0J"
1I"
1H"
0G"
1K"
0(!
1:!
1e!
0g!
1."
0b!
0d!
0=!
0_!
1a!
1;!
1^!
0+"
1_!
0a!
1Y!
1b!
0`!
1>!
0e!
1g!
0c!
0/"
0h!
1f!
0;!
0^!
0;"
1t
0x
1w
1v
0u
0_!
1a!
0Y!
0i!
10"
1h!
0f!
1c!
0b!
1`!
1s
0o
1p
1q
0r
1C
0B
1A
1@
0?
0c!
1i!
01"
1b!
0`!
1c!
12"
03"
14"
05"
16"
07"
18"
19"
0:"
1X!
1Y!
1f!
0c!
#540000
01
0O
0&!
#555000
11
1O
1&!
1J"
0I"
0H"
1G"
0K"
1(!
0:!
0?!
1e!
0."
0>!
0b!
1=!
1_!
0a!
1,"
1;!
1+"
0,"
0-"
1b!
1d!
1?!
1/"
0N!
1@!
0;!
0t
1x
0w
0v
1u
1O!
00"
1N!
0@!
0e!
1."
1-"
0s
1o
0p
0q
1r
0C
1B
0A
0@
1?
0."
0/"
0O!
11"
02"
10"
1/"
00"
01"
13"
04"
12"
11"
02"
03"
15"
06"
14"
13"
04"
05"
17"
08"
16"
15"
06"
07"
09"
1:"
18"
17"
08"
19"
0X!
0Y!
0f!
0i!
1`!
1c!
1i!
1;"
0:"
09"
1:"
1X!
1Y!
1f!
0X!
0Y!
0`!
0c!
0f!
0i!
0;"
1`!
1c!
1i!
1;"
#570000
01
0O
0&!
#585000
11
1O
1&!
0J"
1I"
1H"
0G"
1K"
0(!
1:!
1e!
0g!
1."
0b!
0d!
0=!
0_!
1a!
1;!
1^!
0+"
1_!
0a!
1Y!
1b!
0`!
1>!
0e!
1g!
0c!
0/"
0h!
1f!
0;!
0^!
0;"
1t
0x
1w
1v
0u
0_!
1a!
0Y!
0i!
10"
1h!
0f!
1c!
0b!
1`!
1s
0o
1p
1q
0r
1C
0B
1A
1@
0?
0c!
1i!
01"
1b!
0`!
1c!
12"
03"
14"
05"
16"
07"
18"
19"
0:"
1X!
1Y!
1f!
0c!
#600000
01
0O
0&!
#615000
11
1O
1&!
1J"
0I"
0H"
1G"
0K"
1(!
0:!
0?!
1e!
0."
0>!
0b!
1=!
1_!
0a!
1,"
1;!
1+"
0,"
0-"
1b!
1d!
1?!
1/"
0N!
1@!
0;!
0t
1x
0w
0v
1u
1O!
00"
1N!
0@!
0e!
1."
1-"
0s
1o
0p
0q
1r
0C
1B
0A
0@
1?
0."
0/"
0O!
11"
02"
10"
1/"
00"
01"
13"
04"
12"
11"
02"
03"
15"
06"
14"
13"
04"
05"
17"
08"
16"
15"
06"
07"
09"
1:"
18"
17"
08"
19"
0X!
0Y!
0f!
0i!
1`!
1c!
1i!
1;"
0:"
09"
1:"
1X!
1Y!
1f!
0X!
0Y!
0`!
0c!
0f!
0i!
0;"
1`!
1c!
1i!
1;"
#630000
01
0O
0&!
#645000
11
1O
1&!
0J"
1I"
1H"
0G"
1K"
0(!
1:!
1e!
0g!
1."
0b!
0d!
0=!
0_!
1a!
1;!
1^!
0+"
1_!
0a!
1Y!
1b!
0`!
1>!
0e!
1g!
0c!
0/"
0h!
1f!
0;!
0^!
0;"
1t
0x
1w
1v
0u
0_!
1a!
0Y!
0i!
10"
1h!
0f!
1c!
0b!
1`!
1s
0o
1p
1q
0r
1C
0B
1A
1@
0?
0c!
1i!
01"
1b!
0`!
1c!
12"
03"
14"
05"
16"
07"
18"
19"
0:"
1X!
1Y!
1f!
0c!
#660000
01
0O
0&!
#675000
11
1O
1&!
1J"
0I"
0H"
1G"
0K"
1(!
0:!
0?!
1e!
0."
0>!
0b!
1=!
1_!
0a!
1,"
1;!
1+"
0,"
0-"
1b!
1d!
1?!
1/"
0N!
1@!
0;!
0t
1x
0w
0v
1u
1O!
00"
1N!
0@!
0e!
1."
1-"
0s
1o
0p
0q
1r
0C
1B
0A
0@
1?
0."
0/"
0O!
11"
02"
10"
1/"
00"
01"
13"
04"
12"
11"
02"
03"
15"
06"
14"
13"
04"
05"
17"
08"
16"
15"
06"
07"
09"
1:"
18"
17"
08"
19"
0X!
0Y!
0f!
0i!
1`!
1c!
1i!
1;"
0:"
09"
1:"
1X!
1Y!
1f!
0X!
0Y!
0`!
0c!
0f!
0i!
0;"
1`!
1c!
1i!
1;"
#690000
01
0O
0&!
#705000
11
1O
1&!
0J"
1I"
1H"
0G"
1K"
0(!
1:!
1e!
0g!
1."
0b!
0d!
0=!
0_!
1a!
1;!
1^!
0+"
1_!
0a!
1Y!
1b!
0`!
1>!
0e!
1g!
0c!
0/"
0h!
1f!
0;!
0^!
0;"
1t
0x
1w
1v
0u
0_!
1a!
0Y!
0i!
10"
1h!
0f!
1c!
0b!
1`!
1s
0o
1p
1q
0r
1C
0B
1A
1@
0?
0c!
1i!
01"
1b!
0`!
1c!
12"
03"
14"
05"
16"
07"
18"
19"
0:"
1X!
1Y!
1f!
0c!
#720000
01
0O
0&!
#735000
11
1O
1&!
1J"
0I"
0H"
1G"
0K"
1(!
0:!
0?!
1e!
0."
0>!
0b!
1=!
1_!
0a!
1,"
1;!
1+"
0,"
0-"
1b!
1d!
1?!
1/"
0N!
1@!
0;!
0t
1x
0w
0v
1u
1O!
00"
1N!
0@!
0e!
1."
1-"
0s
1o
0p
0q
1r
0C
1B
0A
0@
1?
0."
0/"
0O!
11"
02"
10"
1/"
00"
01"
13"
04"
12"
11"
02"
03"
15"
06"
14"
13"
04"
05"
17"
08"
16"
15"
06"
07"
09"
1:"
18"
17"
08"
19"
0X!
0Y!
0f!
0i!
1`!
1c!
1i!
1;"
0:"
09"
1:"
1X!
1Y!
1f!
0X!
0Y!
0`!
0c!
0f!
0i!
0;"
1`!
1c!
1i!
1;"
